<!-- Created by MetaPost 2.01 on 2023.01.29:2346 --><svg xmlns="http://www.w3.org/2000/svg" xmlns:xlink="http://www.w3.org/1999/xlink" version="1.1" width="99.62616" height="175.34210199999998" viewBox="27 1 99 175">
<!-- Original BoundingBox: -27.260361 -55.790710 131.512924 121.132965 -->
  <path d="M27.000000 176.790710L126.626160 176.790710L126.626160 1.448608L27.000000 1.448608Z" style="stroke:rgb(100.000000%,0.000000%,0.000000%); stroke-width: 0.000000;stroke-linecap: round;stroke-linejoin: round;stroke-miterlimit: 10.000000;fill: none;"/>
  <path d="M49.756012 74.448059C44.897003 72.235840,39.318146 72.235840,34.459137 74.448059C24.907455 78.796768,20.427582 89.858536,24.261490 99.628235L24.261490 99.628235C27.569427 101.904709,31.312714 103.471939,35.255844 104.231308C38.887268 104.930649,42.618774 104.930649,46.250198 104.231308L46.250198 104.231308C52.087448 107.032715,58.880829 107.032715,64.718079 104.231308C73.373001 100.077652,78.350342 90.805740,77.029678 81.296982L77.029678 81.296982C81.919724 83.499863,87.519684 83.499863,92.409729 81.296982C102.390671 76.800751,106.946274 65.150558,102.662827 55.076462L102.662827 55.076462C99.522552 51.453201,95.258194 48.987381,90.551453 48.073181C87.885025 47.555267,85.143845 47.555267,82.477417 48.073181L82.477417 48.073181C77.201416 45.566528,71.077637 45.566528,65.801636 48.073181C57.286575 52.118729,52.680634 61.497116,54.684738 70.708862L54.684738 70.708862C49.439484 68.211914,43.348206 68.211914,38.102951 70.708862C29.749893 74.685257,25.187729 83.847794,27.048706 92.909912Z" style="fill: rgb(100.000000%,100.000000%,100.000000%);stroke: none;"/>
  <path d="M49.756012 74.448059C44.897003 72.235840,39.318146 72.235840,34.459137 74.448059C24.907455 78.796768,20.427582 89.858536,24.261490 99.628235" style="stroke:rgb(0.000000%,0.000000%,0.000000%); stroke-width: 1.000000;stroke-linecap: round;stroke-linejoin: round;stroke-miterlimit: 10.000000;fill: none;"/>
  <path d="M24.261490 99.628235C27.569427 101.904709,31.312714 103.471939,35.255844 104.231308C38.887268 104.930649,42.618774 104.930649,46.250198 104.231308" style="stroke:rgb(0.000000%,0.000000%,0.000000%); stroke-width: 1.000000;stroke-linecap: round;stroke-linejoin: round;stroke-miterlimit: 10.000000;fill: none;"/>
  <path d="M46.250198 104.231308C52.087448 107.032715,58.880829 107.032715,64.718079 104.231308C73.373001 100.077652,78.350342 90.805740,77.029678 81.296982" style="stroke:rgb(0.000000%,0.000000%,0.000000%); stroke-width: 1.000000;stroke-linecap: round;stroke-linejoin: round;stroke-miterlimit: 10.000000;fill: none;"/>
  <path d="M77.029678 81.296982C81.919724 83.499863,87.519684 83.499863,92.409729 81.296982C102.390671 76.800751,106.946274 65.150558,102.662827 55.076462" style="stroke:rgb(0.000000%,0.000000%,0.000000%); stroke-width: 1.000000;stroke-linecap: round;stroke-linejoin: round;stroke-miterlimit: 10.000000;fill: none;"/>
  <path d="M102.662827 55.076462C99.522552 51.453201,95.258194 48.987381,90.551453 48.073181C87.885025 47.555267,85.143845 47.555267,82.477417 48.073181" style="stroke:rgb(0.000000%,0.000000%,0.000000%); stroke-width: 1.000000;stroke-linecap: round;stroke-linejoin: round;stroke-miterlimit: 10.000000;fill: none;"/>
  <path d="M82.477417 48.073181C77.201416 45.566528,71.077637 45.566528,65.801636 48.073181C57.286575 52.118729,52.680634 61.497116,54.684738 70.708862" style="stroke:rgb(0.000000%,0.000000%,0.000000%); stroke-width: 1.000000;stroke-linecap: round;stroke-linejoin: round;stroke-miterlimit: 10.000000;fill: none;"/>
  <path d="M54.684738 70.708862C49.439484 68.211914,43.348206 68.211914,38.102951 70.708862C29.749893 74.685257,25.187729 83.847794,27.048706 92.909912" style="stroke:rgb(0.000000%,0.000000%,0.000000%); stroke-width: 1.000000;stroke-linecap: round;stroke-linejoin: round;stroke-miterlimit: 10.000000;fill: none;"/>
  <path d="M94.185837 72.740555C95.355148 72.942093,96.550339 72.942093,97.719650 72.740555C111.959030 70.286270,113.677429 50.526184,100.075455 45.650726L100.075455 45.650726C94.849106 43.239594,88.828705 43.239594,83.602356 45.650726C78.033600 48.219818,73.975433 53.231476,72.620575 59.212753L72.620575 59.212753C69.694901 58.268524,66.546356 58.268524,63.620682 59.212753C50.574799 63.423172,47.197891 80.307968,57.620895 89.212097L57.620895 89.212097C54.695145 88.267838,51.546478 88.267838,48.620728 89.212097C35.574448 93.422653,32.197433 110.307968,42.620758 119.212372L42.620758 119.212372C40.852051 118.595612,38.926682 118.595612,37.157974 119.212372C30.374283 121.577927,28.413986 130.232285,33.516205 135.290115L33.516205 135.290115C34.311630 135.618469,35.204727 135.618469,36.000153 135.290115C36.718201 134.993698,37.305862 134.449188,37.656067 133.755783L37.656067 133.755783C37.789093 134.402878,38.251617 134.932877,38.874771 135.152237C39.269135 135.291061,39.699097 135.291061,40.093460 135.152237L40.093460 135.152237C39.808487 135.021759,39.480865 135.021759,39.195892 135.152237C38.647415 135.403351,38.386200 136.035614,38.597519 136.600632L38.597519 136.600632C40.473999 137.208359,42.494415 137.208359,44.370895 136.600632C45.833160 136.127060,47.155441 135.298828,48.219727 134.189850L48.219727 134.189850C54.319717 135.102631,60.521576 135.102631,66.621567 134.189850C70.807220 133.563522,74.917801 132.510620,78.889145 131.047577L78.889145 131.047577C85.321442 133.408157,92.382935 133.408157,98.815231 131.047577C104.131561 129.096558,108.752914 125.618240,112.098953 121.049438L112.098953 121.049438C118.419647 123.966476,125.701294 123.966476,132.021988 121.049438C138.762833 117.938492,143.672028 111.867706,145.303665 104.625137L145.303665 104.625137C146.083725 104.732559,146.874817 104.732559,147.654877 104.625137C160.558441 102.848175,161.774338 84.667801,149.222305 81.188385L149.222305 81.188385C143.810333 78.928070,137.718781 78.928070,132.306808 81.188385C127.363388 83.253006,123.350433 87.061325,121.030106 91.889999L121.030106 91.889999C116.298569 89.938126,110.986847 89.938126,106.255310 91.889999C101.986923 93.650803,98.491974 96.884644,96.405701 101.003754L96.405701 101.003754C91.310608 99.750488,85.987717 99.750488,80.892624 101.003754C77.202866 101.911346,73.702011 103.462357,70.550827 105.585556L70.550827 105.585556C64.684067 104.306625,58.610657 104.306625,52.743896 105.585556C48.575836 106.494171,44.572128 108.037827,40.872910 110.162491L40.872910 110.162491C35.517990 107.622421,29.305237 107.622421,23.950317 110.162491C15.218719 114.304291,10.530563 123.950668,12.668884 133.375259L12.668884 133.375259C-4.005096 133.737427,-3.852875 158.623764,12.824295 158.781921L12.979706 158.781921L12.979706 158.781921C18.804596 159.522644,24.699860 159.522644,30.524750 158.781921C34.488983 158.277817,38.402313 157.432434,42.221146 156.255234L42.221146 156.255234C46.770981 158.221619,51.930954 158.221619,56.480789 156.255234C67.052307 151.686356,71.445709 139.046448,65.986969 128.905746L65.986969 128.905746C68.934540 129.861771,72.108841 129.861771,75.056412 128.905746C88.077286 124.682480,91.470963 107.844406,81.102554 98.907104L81.102554 98.907104C84.028214 99.851334,87.176773 99.851334,90.102432 98.907104C103.148285 94.696686,106.525192 77.811920,96.102203 68.907806Z" style="fill: rgb(100.000000%,100.000000%,100.000000%);stroke: none;"/>
  <path d="M94.185837 72.740555C95.355148 72.942093,96.550339 72.942093,97.719650 72.740555C111.959030 70.286270,113.677429 50.526184,100.075455 45.650726" style="stroke:rgb(0.000000%,0.000000%,0.000000%); stroke-width: 1.000000;stroke-linecap: round;stroke-linejoin: round;stroke-miterlimit: 10.000000;fill: none;"/>
  <path d="M100.075455 45.650726C94.849106 43.239594,88.828705 43.239594,83.602356 45.650726C78.033600 48.219818,73.975433 53.231476,72.620575 59.212753" style="stroke:rgb(0.000000%,0.000000%,0.000000%); stroke-width: 1.000000;stroke-linecap: round;stroke-linejoin: round;stroke-miterlimit: 10.000000;fill: none;"/>
  <path d="M72.620575 59.212753C69.694901 58.268524,66.546356 58.268524,63.620682 59.212753C50.574799 63.423172,47.197891 80.307968,57.620895 89.212097" style="stroke:rgb(0.000000%,0.000000%,0.000000%); stroke-width: 1.000000;stroke-linecap: round;stroke-linejoin: round;stroke-miterlimit: 10.000000;fill: none;"/>
  <path d="M57.620895 89.212097C54.695145 88.267838,51.546478 88.267838,48.620728 89.212097C35.574448 93.422653,32.197433 110.307968,42.620758 119.212372" style="stroke:rgb(0.000000%,0.000000%,0.000000%); stroke-width: 1.000000;stroke-linecap: round;stroke-linejoin: round;stroke-miterlimit: 10.000000;fill: none;"/>
  <path d="M42.620758 119.212372C40.852051 118.595612,38.926682 118.595612,37.157974 119.212372C30.374283 121.577927,28.413986 130.232285,33.516205 135.290115" style="stroke:rgb(0.000000%,0.000000%,0.000000%); stroke-width: 1.000000;stroke-linecap: round;stroke-linejoin: round;stroke-miterlimit: 10.000000;fill: none;"/>
  <path d="M33.516205 135.290115C34.311630 135.618469,35.204727 135.618469,36.000153 135.290115C36.718201 134.993698,37.305862 134.449188,37.656067 133.755783" style="stroke:rgb(0.000000%,0.000000%,0.000000%); stroke-width: 1.000000;stroke-linecap: round;stroke-linejoin: round;stroke-miterlimit: 10.000000;fill: none;"/>
  <path d="M37.656067 133.755783C37.789093 134.402878,38.251617 134.932877,38.874771 135.152237C39.269135 135.291061,39.699097 135.291061,40.093460 135.152237" style="stroke:rgb(0.000000%,0.000000%,0.000000%); stroke-width: 1.000000;stroke-linecap: round;stroke-linejoin: round;stroke-miterlimit: 10.000000;fill: none;"/>
  <path d="M40.093460 135.152237C39.808487 135.021759,39.480865 135.021759,39.195892 135.152237C38.647415 135.403351,38.386200 136.035614,38.597519 136.600632" style="stroke:rgb(0.000000%,0.000000%,0.000000%); stroke-width: 1.000000;stroke-linecap: round;stroke-linejoin: round;stroke-miterlimit: 10.000000;fill: none;"/>
  <path d="M38.597519 136.600632C40.473999 137.208359,42.494415 137.208359,44.370895 136.600632C45.833160 136.127060,47.155441 135.298828,48.219727 134.189850" style="stroke:rgb(0.000000%,0.000000%,0.000000%); stroke-width: 1.000000;stroke-linecap: round;stroke-linejoin: round;stroke-miterlimit: 10.000000;fill: none;"/>
  <path d="M48.219727 134.189850C54.319717 135.102631,60.521576 135.102631,66.621567 134.189850C70.807220 133.563522,74.917801 132.510620,78.889145 131.047577" style="stroke:rgb(0.000000%,0.000000%,0.000000%); stroke-width: 1.000000;stroke-linecap: round;stroke-linejoin: round;stroke-miterlimit: 10.000000;fill: none;"/>
  <path d="M78.889145 131.047577C85.321442 133.408157,92.382935 133.408157,98.815231 131.047577C104.131561 129.096558,108.752914 125.618240,112.098953 121.049438" style="stroke:rgb(0.000000%,0.000000%,0.000000%); stroke-width: 1.000000;stroke-linecap: round;stroke-linejoin: round;stroke-miterlimit: 10.000000;fill: none;"/>
  <path d="M112.098953 121.049438C118.419647 123.966476,125.701294 123.966476,132.021988 121.049438C138.762833 117.938492,143.672028 111.867706,145.303665 104.625137" style="stroke:rgb(0.000000%,0.000000%,0.000000%); stroke-width: 1.000000;stroke-linecap: round;stroke-linejoin: round;stroke-miterlimit: 10.000000;fill: none;"/>
  <path d="M145.303665 104.625137C146.083725 104.732559,146.874817 104.732559,147.654877 104.625137C160.558441 102.848175,161.774338 84.667801,149.222305 81.188385" style="stroke:rgb(0.000000%,0.000000%,0.000000%); stroke-width: 1.000000;stroke-linecap: round;stroke-linejoin: round;stroke-miterlimit: 10.000000;fill: none;"/>
  <path d="M149.222305 81.188385C143.810333 78.928070,137.718781 78.928070,132.306808 81.188385C127.363388 83.253006,123.350433 87.061325,121.030106 91.889999" style="stroke:rgb(0.000000%,0.000000%,0.000000%); stroke-width: 1.000000;stroke-linecap: round;stroke-linejoin: round;stroke-miterlimit: 10.000000;fill: none;"/>
  <path d="M121.030106 91.889999C116.298569 89.938126,110.986847 89.938126,106.255310 91.889999C101.986923 93.650803,98.491974 96.884644,96.405701 101.003754" style="stroke:rgb(0.000000%,0.000000%,0.000000%); stroke-width: 1.000000;stroke-linecap: round;stroke-linejoin: round;stroke-miterlimit: 10.000000;fill: none;"/>
  <path d="M96.405701 101.003754C91.310608 99.750488,85.987717 99.750488,80.892624 101.003754C77.202866 101.911346,73.702011 103.462357,70.550827 105.585556" style="stroke:rgb(0.000000%,0.000000%,0.000000%); stroke-width: 1.000000;stroke-linecap: round;stroke-linejoin: round;stroke-miterlimit: 10.000000;fill: none;"/>
  <path d="M70.550827 105.585556C64.684067 104.306625,58.610657 104.306625,52.743896 105.585556C48.575836 106.494171,44.572128 108.037827,40.872910 110.162491" style="stroke:rgb(0.000000%,0.000000%,0.000000%); stroke-width: 1.000000;stroke-linecap: round;stroke-linejoin: round;stroke-miterlimit: 10.000000;fill: none;"/>
  <path d="M40.872910 110.162491C35.517990 107.622421,29.305237 107.622421,23.950317 110.162491C15.218719 114.304291,10.530563 123.950668,12.668884 133.375259" style="stroke:rgb(0.000000%,0.000000%,0.000000%); stroke-width: 1.000000;stroke-linecap: round;stroke-linejoin: round;stroke-miterlimit: 10.000000;fill: none;"/>
  <path d="M12.668884 133.375259C-4.005096 133.737427,-3.852875 158.623764,12.824295 158.781921L12.979706 158.781921" style="stroke:rgb(0.000000%,0.000000%,0.000000%); stroke-width: 1.000000;stroke-linecap: round;stroke-linejoin: round;stroke-miterlimit: 10.000000;fill: none;"/>
  <path d="M12.979706 158.781921C18.804596 159.522644,24.699860 159.522644,30.524750 158.781921C34.488983 158.277817,38.402313 157.432434,42.221146 156.255234" style="stroke:rgb(0.000000%,0.000000%,0.000000%); stroke-width: 1.000000;stroke-linecap: round;stroke-linejoin: round;stroke-miterlimit: 10.000000;fill: none;"/>
  <path d="M42.221146 156.255234C46.770981 158.221619,51.930954 158.221619,56.480789 156.255234C67.052307 151.686356,71.445709 139.046448,65.986969 128.905746" style="stroke:rgb(0.000000%,0.000000%,0.000000%); stroke-width: 1.000000;stroke-linecap: round;stroke-linejoin: round;stroke-miterlimit: 10.000000;fill: none;"/>
  <path d="M65.986969 128.905746C68.934540 129.861771,72.108841 129.861771,75.056412 128.905746C88.077286 124.682480,91.470963 107.844406,81.102554 98.907104" style="stroke:rgb(0.000000%,0.000000%,0.000000%); stroke-width: 1.000000;stroke-linecap: round;stroke-linejoin: round;stroke-miterlimit: 10.000000;fill: none;"/>
  <path d="M81.102554 98.907104C84.028214 99.851334,87.176773 99.851334,90.102432 98.907104C103.148285 94.696686,106.525192 77.811920,96.102203 68.907806" style="stroke:rgb(0.000000%,0.000000%,0.000000%); stroke-width: 1.000000;stroke-linecap: round;stroke-linejoin: round;stroke-miterlimit: 10.000000;fill: none;"/>
  <path d="M108.492096 16.165283C107.412506 15.651901,106.159134 15.651901,105.079544 16.165283C103.803558 16.772049,102.939835 18.004181,102.804565 19.410599L102.804565 19.410599C90.563370 21.709106,91.527252 39.548401,103.944839 40.514557C104.324356 40.544083,104.705582 40.544083,105.085098 40.514557L105.085098 40.514557C110.138351 42.933243,116.015152 42.933243,121.068405 40.514557C128.773148 36.826767,133.115585 28.492859,131.723679 20.065201L131.723679 20.065201C135.809021 13.096939,132.034134 4.159912,124.190460 2.230316C122.541046 1.824554,120.817856 1.824554,119.168442 2.230316L119.168442 2.230316C114.003479 -0.254074,107.988846 -0.254074,102.823883 2.230316C95.415787 5.793671,91.052200 13.633835,91.927795 21.807632L91.927795 21.807632C86.582779 28.276093,89.580688 38.101990,97.626297 40.484924C99.485870 41.035690,101.465210 41.035690,103.324783 40.484924L103.324783 40.484924C107.921494 42.657501,113.249557 42.657501,117.846268 40.484924C125.504837 36.865204,129.553284 28.351303,127.527023 20.126328L127.527023 20.126328C128.852722 17.208786,127.221634 13.801727,124.117676 13.004837C123.372147 12.813431,122.590363 12.813431,121.844833 13.004837L121.844833 13.004837C120.749191 12.675995,119.581116 12.675995,118.485474 13.004837C112.902679 14.680466,111.592590 21.990128,116.245956 25.500336L116.245956 25.500336C113.335510 24.518051,110.183121 24.518051,107.272675 25.500336C104.966232 26.278778,102.903839 27.647568,101.290649 29.470535L101.290649 29.470535C102.327591 29.783096,103.433640 29.783096,104.470581 29.470535C109.713669 27.890106,110.951050 21.029633,106.590485 17.717041L106.590485 17.717041C106.393967 17.494217,106.129105 17.342834,105.837357 17.286636C105.671524 17.254684,105.501129 17.254684,105.335297 17.286636Z" style="fill: rgb(100.000000%,100.000000%,100.000000%);stroke: none;"/>
  <path d="M108.492096 16.165283C107.412506 15.651901,106.159134 15.651901,105.079544 16.165283C103.803558 16.772049,102.939835 18.004181,102.804565 19.410599" style="stroke:rgb(0.000000%,0.000000%,0.000000%); stroke-width: 1.000000;stroke-linecap: round;stroke-linejoin: round;stroke-miterlimit: 10.000000;fill: none;"/>
  <path d="M102.804565 19.410599C90.563370 21.709106,91.527252 39.548401,103.944839 40.514557C104.324356 40.544083,104.705582 40.544083,105.085098 40.514557" style="stroke:rgb(0.000000%,0.000000%,0.000000%); stroke-width: 1.000000;stroke-linecap: round;stroke-linejoin: round;stroke-miterlimit: 10.000000;fill: none;"/>
  <path d="M105.085098 40.514557C110.138351 42.933243,116.015152 42.933243,121.068405 40.514557C128.773148 36.826767,133.115585 28.492859,131.723679 20.065201" style="stroke:rgb(0.000000%,0.000000%,0.000000%); stroke-width: 1.000000;stroke-linecap: round;stroke-linejoin: round;stroke-miterlimit: 10.000000;fill: none;"/>
  <path d="M131.723679 20.065201C135.809021 13.096939,132.034134 4.159912,124.190460 2.230316C122.541046 1.824554,120.817856 1.824554,119.168442 2.230316" style="stroke:rgb(0.000000%,0.000000%,0.000000%); stroke-width: 1.000000;stroke-linecap: round;stroke-linejoin: round;stroke-miterlimit: 10.000000;fill: none;"/>
  <path d="M119.168442 2.230316C114.003479 -0.254074,107.988846 -0.254074,102.823883 2.230316C95.415787 5.793671,91.052200 13.633835,91.927795 21.807632" style="stroke:rgb(0.000000%,0.000000%,0.000000%); stroke-width: 1.000000;stroke-linecap: round;stroke-linejoin: round;stroke-miterlimit: 10.000000;fill: none;"/>
  <path d="M91.927795 21.807632C86.582779 28.276093,89.580688 38.101990,97.626297 40.484924C99.485870 41.035690,101.465210 41.035690,103.324783 40.484924" style="stroke:rgb(0.000000%,0.000000%,0.000000%); stroke-width: 1.000000;stroke-linecap: round;stroke-linejoin: round;stroke-miterlimit: 10.000000;fill: none;"/>
  <path d="M103.324783 40.484924C107.921494 42.657501,113.249557 42.657501,117.846268 40.484924C125.504837 36.865204,129.553284 28.351303,127.527023 20.126328" style="stroke:rgb(0.000000%,0.000000%,0.000000%); stroke-width: 1.000000;stroke-linecap: round;stroke-linejoin: round;stroke-miterlimit: 10.000000;fill: none;"/>
  <path d="M127.527023 20.126328C128.852722 17.208786,127.221634 13.801727,124.117676 13.004837C123.372147 12.813431,122.590363 12.813431,121.844833 13.004837" style="stroke:rgb(0.000000%,0.000000%,0.000000%); stroke-width: 1.000000;stroke-linecap: round;stroke-linejoin: round;stroke-miterlimit: 10.000000;fill: none;"/>
  <path d="M121.844833 13.004837C120.749191 12.675995,119.581116 12.675995,118.485474 13.004837C112.902679 14.680466,111.592590 21.990128,116.245956 25.500336" style="stroke:rgb(0.000000%,0.000000%,0.000000%); stroke-width: 1.000000;stroke-linecap: round;stroke-linejoin: round;stroke-miterlimit: 10.000000;fill: none;"/>
  <path d="M116.245956 25.500336C113.335510 24.518051,110.183121 24.518051,107.272675 25.500336C104.966232 26.278778,102.903839 27.647568,101.290649 29.470535" style="stroke:rgb(0.000000%,0.000000%,0.000000%); stroke-width: 1.000000;stroke-linecap: round;stroke-linejoin: round;stroke-miterlimit: 10.000000;fill: none;"/>
  <path d="M101.290649 29.470535C102.327591 29.783096,103.433640 29.783096,104.470581 29.470535C109.713669 27.890106,110.951050 21.029633,106.590485 17.717041" style="stroke:rgb(0.000000%,0.000000%,0.000000%); stroke-width: 1.000000;stroke-linecap: round;stroke-linejoin: round;stroke-miterlimit: 10.000000;fill: none;"/>
  <path d="M106.590485 17.717041C106.393967 17.494217,106.129105 17.342834,105.837357 17.286636C105.671524 17.254684,105.501129 17.254684,105.335297 17.286636" style="stroke:rgb(0.000000%,0.000000%,0.000000%); stroke-width: 1.000000;stroke-linecap: round;stroke-linejoin: round;stroke-miterlimit: 10.000000;fill: none;"/>
</svg>