<!-- Created by MetaPost 2.01 on 2023.01.29:2229 --><svg xmlns="http://www.w3.org/2000/svg" xmlns:xlink="http://www.w3.org/1999/xlink" version="1.1" width="99.62616" height="175.34210199999998" viewBox="44 0 99 175">
<!-- Original BoundingBox: -44.931778 -89.763550 154.520554 119.551392 -->
  <path d="M44.000000 174.790710L143.626160 174.790710L143.626160 -0.551392L44.000000 -0.551392Z" style="stroke:rgb(100.000000%,0.000000%,0.000000%); stroke-width: 0.000000;stroke-linecap: round;stroke-linejoin: round;stroke-miterlimit: 10.000000;fill: none;"/>
  <path d="M98.794388 9.411224L26.067261 154.865479" style="stroke:rgb(30.000305%,30.000305%,30.000305%); stroke-width: 0.199997;stroke-linecap: round;stroke-linejoin: round;stroke-miterlimit: 10.000000;fill: none;"/>
  <path d="M108.757004 9.411224L36.029877 154.865479" style="stroke:rgb(30.000305%,30.000305%,30.000305%); stroke-width: 0.199997;stroke-linecap: round;stroke-linejoin: round;stroke-miterlimit: 10.000000;fill: none;"/>
  <path d="M118.719620 9.411224L45.992493 154.865479" style="stroke:rgb(30.000305%,30.000305%,30.000305%); stroke-width: 0.199997;stroke-linecap: round;stroke-linejoin: round;stroke-miterlimit: 10.000000;fill: none;"/>
  <path d="M128.682236 9.411224L55.955109 154.865479" style="stroke:rgb(30.000305%,30.000305%,30.000305%); stroke-width: 0.199997;stroke-linecap: round;stroke-linejoin: round;stroke-miterlimit: 10.000000;fill: none;"/>
  <path d="M138.644852 9.411224L65.917725 154.865479" style="stroke:rgb(30.000305%,30.000305%,30.000305%); stroke-width: 0.199997;stroke-linecap: round;stroke-linejoin: round;stroke-miterlimit: 10.000000;fill: none;"/>
  <path d="M148.607468 9.411224L75.880341 154.865479" style="stroke:rgb(30.000305%,30.000305%,30.000305%); stroke-width: 0.199997;stroke-linecap: round;stroke-linejoin: round;stroke-miterlimit: 10.000000;fill: none;"/>
  <path d="M158.570084 9.411224L85.842957 154.865479" style="stroke:rgb(30.000305%,30.000305%,30.000305%); stroke-width: 0.199997;stroke-linecap: round;stroke-linejoin: round;stroke-miterlimit: 10.000000;fill: none;"/>
  <path d="M168.532700 9.411224L95.805573 154.865479" style="stroke:rgb(30.000305%,30.000305%,30.000305%); stroke-width: 0.199997;stroke-linecap: round;stroke-linejoin: round;stroke-miterlimit: 10.000000;fill: none;"/>
  <path d="M178.495316 9.411224L105.768188 154.865479" style="stroke:rgb(30.000305%,30.000305%,30.000305%); stroke-width: 0.199997;stroke-linecap: round;stroke-linejoin: round;stroke-miterlimit: 10.000000;fill: none;"/>
  <path d="M188.457932 9.411224L115.730804 154.865479" style="stroke:rgb(30.000305%,30.000305%,30.000305%); stroke-width: 0.199997;stroke-linecap: round;stroke-linejoin: round;stroke-miterlimit: 10.000000;fill: none;"/>
  <path d="M198.420547 9.411224L125.693420 154.865479" style="stroke:rgb(30.000305%,30.000305%,30.000305%); stroke-width: 0.199997;stroke-linecap: round;stroke-linejoin: round;stroke-miterlimit: 10.000000;fill: none;"/>
  <path d="M98.794388 208.663544L-0.831772 208.663544" style="stroke:rgb(30.000305%,30.000305%,30.000305%); stroke-width: 0.199997;stroke-linecap: round;stroke-linejoin: round;stroke-miterlimit: 10.000000;fill: none;"/>
  <path d="M103.775696 198.700928L4.149536 198.700928" style="stroke:rgb(30.000305%,30.000305%,30.000305%); stroke-width: 0.199997;stroke-linecap: round;stroke-linejoin: round;stroke-miterlimit: 10.000000;fill: none;"/>
  <path d="M108.757004 188.738312L9.130844 188.738312" style="stroke:rgb(30.000305%,30.000305%,30.000305%); stroke-width: 0.199997;stroke-linecap: round;stroke-linejoin: round;stroke-miterlimit: 10.000000;fill: none;"/>
  <path d="M113.738312 178.775696L14.112152 178.775696" style="stroke:rgb(30.000305%,30.000305%,30.000305%); stroke-width: 0.199997;stroke-linecap: round;stroke-linejoin: round;stroke-miterlimit: 10.000000;fill: none;"/>
  <path d="M118.719620 168.813080L19.093460 168.813080" style="stroke:rgb(30.000305%,30.000305%,30.000305%); stroke-width: 0.199997;stroke-linecap: round;stroke-linejoin: round;stroke-miterlimit: 10.000000;fill: none;"/>
  <path d="M123.700928 158.850464L24.074768 158.850464" style="stroke:rgb(30.000305%,30.000305%,30.000305%); stroke-width: 0.199997;stroke-linecap: round;stroke-linejoin: round;stroke-miterlimit: 10.000000;fill: none;"/>
  <path d="M128.682236 148.887848L29.056076 148.887848" style="stroke:rgb(30.000305%,30.000305%,30.000305%); stroke-width: 0.199997;stroke-linecap: round;stroke-linejoin: round;stroke-miterlimit: 10.000000;fill: none;"/>
  <path d="M133.663544 138.925232L34.037384 138.925232" style="stroke:rgb(30.000305%,30.000305%,30.000305%); stroke-width: 0.199997;stroke-linecap: round;stroke-linejoin: round;stroke-miterlimit: 10.000000;fill: none;"/>
  <path d="M138.644852 128.962616L39.018692 128.962616" style="stroke:rgb(30.000305%,30.000305%,30.000305%); stroke-width: 0.199997;stroke-linecap: round;stroke-linejoin: round;stroke-miterlimit: 10.000000;fill: none;"/>
  <path d="M143.626160 119.000000L44.000000 119.000000" style="stroke:rgb(30.000305%,30.000305%,30.000305%); stroke-width: 0.199997;stroke-linecap: round;stroke-linejoin: round;stroke-miterlimit: 10.000000;fill: none;"/>
  <path d="M148.607468 109.037384L48.981308 109.037384" style="stroke:rgb(30.000305%,30.000305%,30.000305%); stroke-width: 0.199997;stroke-linecap: round;stroke-linejoin: round;stroke-miterlimit: 10.000000;fill: none;"/>
  <path d="M153.588776 99.074768L53.962616 99.074768" style="stroke:rgb(30.000305%,30.000305%,30.000305%); stroke-width: 0.199997;stroke-linecap: round;stroke-linejoin: round;stroke-miterlimit: 10.000000;fill: none;"/>
  <path d="M158.570084 89.112152L58.943924 89.112152" style="stroke:rgb(30.000305%,30.000305%,30.000305%); stroke-width: 0.199997;stroke-linecap: round;stroke-linejoin: round;stroke-miterlimit: 10.000000;fill: none;"/>
  <path d="M163.551392 79.149536L63.925232 79.149536" style="stroke:rgb(30.000305%,30.000305%,30.000305%); stroke-width: 0.199997;stroke-linecap: round;stroke-linejoin: round;stroke-miterlimit: 10.000000;fill: none;"/>
  <path d="M168.532700 69.186920L68.906540 69.186920" style="stroke:rgb(30.000305%,30.000305%,30.000305%); stroke-width: 0.199997;stroke-linecap: round;stroke-linejoin: round;stroke-miterlimit: 10.000000;fill: none;"/>
  <path d="M173.514008 59.224304L73.887848 59.224304" style="stroke:rgb(30.000305%,30.000305%,30.000305%); stroke-width: 0.199997;stroke-linecap: round;stroke-linejoin: round;stroke-miterlimit: 10.000000;fill: none;"/>
  <path d="M178.495316 49.261688L78.869156 49.261688" style="stroke:rgb(30.000305%,30.000305%,30.000305%); stroke-width: 0.199997;stroke-linecap: round;stroke-linejoin: round;stroke-miterlimit: 10.000000;fill: none;"/>
  <path d="M183.476624 39.299072L83.850464 39.299072" style="stroke:rgb(30.000305%,30.000305%,30.000305%); stroke-width: 0.199997;stroke-linecap: round;stroke-linejoin: round;stroke-miterlimit: 10.000000;fill: none;"/>
  <path d="M188.457932 29.336456L88.831772 29.336456" style="stroke:rgb(30.000305%,30.000305%,30.000305%); stroke-width: 0.199997;stroke-linecap: round;stroke-linejoin: round;stroke-miterlimit: 10.000000;fill: none;"/>
  <path d="M193.439240 19.373840L93.813080 19.373840" style="stroke:rgb(30.000305%,30.000305%,30.000305%); stroke-width: 0.199997;stroke-linecap: round;stroke-linejoin: round;stroke-miterlimit: 10.000000;fill: none;"/>
  <path d="M198.420547 9.411224L98.794388 9.411224" style="stroke:rgb(30.000305%,30.000305%,30.000305%); stroke-width: 0.199997;stroke-linecap: round;stroke-linejoin: round;stroke-miterlimit: 10.000000;fill: none;"/>
  <path d="M44.000000 119.000000L143.626160 119.000000" style="stroke:rgb(100.000000%,0.000000%,0.000000%); stroke-width: 1.100006;stroke-linecap: round;stroke-linejoin: round;stroke-miterlimit: 10.000000;fill: none;"/>
  <path d="M75.382263 56.235489L175.008423 56.235489" style="stroke:rgb(100.000000%,0.000000%,0.000000%); stroke-width: 1.100006;stroke-linecap: round;stroke-linejoin: round;stroke-miterlimit: 10.000000;fill: none;"/>
  <g transform="matrix(-0.500001,-0.866025,0.866025,-0.500001,0.000000,0.000000)">
    <path d="M-124.136395 -20.000761L-86.392550 37.165080" style="stroke:rgb(0.000000%,0.000000%,0.000000%); stroke-width: 2.988823;stroke-linecap: round;stroke-linejoin: round;stroke-miterlimit: 10.000000;fill: none;"/>
  </g>
  <g transform="matrix(-0.500001,-0.866025,0.866025,-0.500001,0.000000,0.000000)">
    <path d="M-124.136395 -20.000761C-115.746336 -3.742364,-107.634929 12.857620,-99.813578 29.775941C-95.953782 38.125048,-92.819065 48.296092,-96.355192 54.420822C-100.418214 61.458158,-108.006121 59.991660,-112.266880 51.345619L-140.574770 8.471239" style="stroke:rgb(0.000000%,0.000000%,0.000000%); stroke-width: 2.988823;stroke-linecap: round;stroke-linejoin: round;stroke-miterlimit: 10.000000;fill: none;"/>
  </g>
  <g transform="matrix(-0.500001,-0.866025,0.866025,-0.500001,0.000000,0.000000)">
    <path d="M-112.266880 51.345619C-106.500641 56.917061,-104.798695 69.045348,-108.808494 75.990499C-112.871516 83.027835,-120.459424 81.561338,-124.720183 72.915296L-145.479423 41.473914C-149.361951 35.593527,-154.994381 34.704949,-158.507480 39.531496C-161.841116 44.111506,-162.028857 52.121263,-161.717648 59.736816C-161.318645 69.500622,-160.380231 79.310582,-158.913416 89.051363" style="stroke:rgb(0.000000%,0.000000%,0.000000%); stroke-width: 2.988823;stroke-linecap: round;stroke-linejoin: round;stroke-miterlimit: 10.000000;fill: none;"/>
  </g>
  <g transform="translate(44.000000 119.000000)" style="fill: rgb(0.000000%,0.000000%,100.000000%);">
    <text font-size="9.962646">0</text>
  </g>
  <path d="M44.000000 119.000000l0 0" style="stroke:rgb(0.000000%,0.000000%,100.000000%); stroke-width: 3.000000;stroke-linecap: round;stroke-linejoin: round;stroke-miterlimit: 10.000000;fill: none;"/>
  <g transform="translate(42.256531 126.925949)" style="fill: rgb(0.000000%,0.000000%,100.000000%);">
    <text font-size="9.962646">1</text>
  </g>
  <path d="M44.747208 117.505585l0 0" style="stroke:rgb(0.000000%,0.000000%,100.000000%); stroke-width: 3.000000;stroke-linecap: round;stroke-linejoin: round;stroke-miterlimit: 10.000000;fill: none;"/>
  <g transform="translate(72.891586 65.655853)" style="fill: rgb(0.000000%,0.000000%,100.000000%);">
    <text font-size="9.962646">2</text>
  </g>
  <path d="M75.382263 56.235489l0 0" style="stroke:rgb(0.000000%,0.000000%,100.000000%); stroke-width: 3.000000;stroke-linecap: round;stroke-linejoin: round;stroke-miterlimit: 10.000000;fill: none;"/>
  <g transform="translate(73.202942 80.973373)" style="fill: rgb(0.000000%,0.000000%,100.000000%);">
    <text font-size="9.962646">3</text>
  </g>
  <path d="M75.693619 71.553009l0 0" style="stroke:rgb(0.000000%,0.000000%,100.000000%); stroke-width: 3.000000;stroke-linecap: round;stroke-linejoin: round;stroke-miterlimit: 10.000000;fill: none;"/>
  <g transform="translate(92.816818 65.655853)" style="fill: rgb(0.000000%,0.000000%,100.000000%);">
    <text font-size="9.962646">4</text>
  </g>
  <path d="M95.307495 56.235489l0 0" style="stroke:rgb(0.000000%,0.000000%,100.000000%); stroke-width: 3.000000;stroke-linecap: round;stroke-linejoin: round;stroke-miterlimit: 10.000000;fill: none;"/>
  <g transform="translate(98.109482 80.973373)" style="fill: rgb(0.000000%,0.000000%,100.000000%);">
    <text font-size="9.962646">5</text>
  </g>
  <path d="M100.600159 71.553009l0 0" style="stroke:rgb(0.000000%,0.000000%,100.000000%); stroke-width: 3.000000;stroke-linecap: round;stroke-linejoin: round;stroke-miterlimit: 10.000000;fill: none;"/>
  <g transform="translate(75.133194 126.925949)" style="fill: rgb(0.000000%,0.000000%,100.000000%);">
    <text font-size="9.962646">6</text>
  </g>
  <path d="M77.623871 117.505585l0 0" style="stroke:rgb(0.000000%,0.000000%,100.000000%); stroke-width: 3.000000;stroke-linecap: round;stroke-linejoin: round;stroke-miterlimit: 10.000000;fill: none;"/>
  <g transform="translate(117.723358 65.655853)" style="fill: rgb(0.000000%,0.000000%,100.000000%);">
    <text font-size="9.962646">7</text>
  </g>
  <path d="M120.214035 56.235489l0 0" style="stroke:rgb(0.000000%,0.000000%,100.000000%); stroke-width: 3.000000;stroke-linecap: round;stroke-linejoin: round;stroke-miterlimit: 10.000000;fill: none;"/>
  <g transform="translate(123.016022 80.973373)" style="fill: rgb(0.000000%,0.000000%,100.000000%);">
    <text font-size="9.962646">8</text>
  </g>
  <path d="M125.506699 71.553009l0 0" style="stroke:rgb(0.000000%,0.000000%,100.000000%); stroke-width: 3.000000;stroke-linecap: round;stroke-linejoin: round;stroke-miterlimit: 10.000000;fill: none;"/>
  <g transform="translate(106.166656 114.672119)" style="fill: rgb(0.000000%,0.000000%,100.000000%);">
    <text font-size="9.962646">9</text>
  </g>
  <path d="M108.657333 105.251755l0 0" style="stroke:rgb(0.000000%,0.000000%,100.000000%); stroke-width: 3.000000;stroke-linecap: round;stroke-linejoin: round;stroke-miterlimit: 10.000000;fill: none;"/>
  <g transform="translate(108.507858 126.925949)" style="fill: rgb(0.000000%,0.000000%,100.000000%);">
    <text font-size="9.962646">10</text>
  </g>
  <path d="M113.489197 117.505585l0 0" style="stroke:rgb(0.000000%,0.000000%,100.000000%); stroke-width: 3.000000;stroke-linecap: round;stroke-linejoin: round;stroke-miterlimit: 10.000000;fill: none;"/>
  <g transform="translate(127.611252 119.603348)" style="fill: rgb(0.000000%,0.000000%,100.000000%);">
    <text font-size="9.962646">11</text>
  </g>
  <path d="M132.592590 110.182983l0 0" style="stroke:rgb(0.000000%,0.000000%,100.000000%); stroke-width: 3.000000;stroke-linecap: round;stroke-linejoin: round;stroke-miterlimit: 10.000000;fill: none;"/>
  <g transform="translate(87.337341 101.521332)" style="fill: rgb(0.000000%,0.000000%,100.000000%);">
    <text font-size="9.962646">12</text>
  </g>
  <path d="M92.318680 92.100967l0 0" style="stroke:rgb(0.000000%,0.000000%,100.000000%); stroke-width: 3.000000;stroke-linecap: round;stroke-linejoin: round;stroke-miterlimit: 10.000000;fill: none;"/>
  <g transform="translate(44.000000 119.000000)" style="fill: rgb(0.000000%,0.000000%,100.000000%);">
    <text font-size="9.962646">13</text>
  </g>
  <path d="M44.000000 119.000000l0 0" style="stroke:rgb(0.000000%,0.000000%,100.000000%); stroke-width: 3.000000;stroke-linecap: round;stroke-linejoin: round;stroke-miterlimit: 10.000000;fill: none;"/>
  <g transform="translate(44.000000 119.000000)" style="fill: rgb(0.000000%,0.000000%,100.000000%);">
    <text font-size="9.962646">14</text>
  </g>
  <path d="M44.000000 119.000000l0 0" style="stroke:rgb(0.000000%,0.000000%,100.000000%); stroke-width: 3.000000;stroke-linecap: round;stroke-linejoin: round;stroke-miterlimit: 10.000000;fill: none;"/>
  <g transform="translate(44.000000 119.000000)" style="fill: rgb(0.000000%,0.000000%,100.000000%);">
    <text font-size="9.962646">15</text>
  </g>
  <path d="M44.000000 119.000000l0 0" style="stroke:rgb(0.000000%,0.000000%,100.000000%); stroke-width: 3.000000;stroke-linecap: round;stroke-linejoin: round;stroke-miterlimit: 10.000000;fill: none;"/>
  <g transform="translate(44.000000 119.000000)" style="fill: rgb(0.000000%,0.000000%,100.000000%);">
    <text font-size="9.962646">16</text>
  </g>
  <path d="M44.000000 119.000000l0 0" style="stroke:rgb(0.000000%,0.000000%,100.000000%); stroke-width: 3.000000;stroke-linecap: round;stroke-linejoin: round;stroke-miterlimit: 10.000000;fill: none;"/>
  <g transform="translate(44.000000 119.000000)" style="fill: rgb(0.000000%,0.000000%,100.000000%);">
    <text font-size="9.962646">17</text>
  </g>
  <path d="M44.000000 119.000000l0 0" style="stroke:rgb(0.000000%,0.000000%,100.000000%); stroke-width: 3.000000;stroke-linecap: round;stroke-linejoin: round;stroke-miterlimit: 10.000000;fill: none;"/>
  <g transform="translate(44.000000 119.000000)" style="fill: rgb(0.000000%,0.000000%,100.000000%);">
    <text font-size="9.962646">18</text>
  </g>
  <path d="M44.000000 119.000000l0 0" style="stroke:rgb(0.000000%,0.000000%,100.000000%); stroke-width: 3.000000;stroke-linecap: round;stroke-linejoin: round;stroke-miterlimit: 10.000000;fill: none;"/>
  <g transform="translate(44.000000 119.000000)" style="fill: rgb(0.000000%,0.000000%,100.000000%);">
    <text font-size="9.962646">19</text>
  </g>
  <path d="M44.000000 119.000000l0 0" style="stroke:rgb(0.000000%,0.000000%,100.000000%); stroke-width: 3.000000;stroke-linecap: round;stroke-linejoin: round;stroke-miterlimit: 10.000000;fill: none;"/>
  <g transform="translate(44.000000 119.000000)" style="fill: rgb(0.000000%,0.000000%,100.000000%);">
    <text font-size="9.962646">20</text>
  </g>
  <path d="M44.000000 119.000000l0 0" style="stroke:rgb(0.000000%,0.000000%,100.000000%); stroke-width: 3.000000;stroke-linecap: round;stroke-linejoin: round;stroke-miterlimit: 10.000000;fill: none;"/>
</svg>