<!-- Created by MetaPost 2.01 on 2023.01.29:2346 --><svg xmlns="http://www.w3.org/2000/svg" xmlns:xlink="http://www.w3.org/1999/xlink" version="1.1" width="99.62616" height="175.34210199999998" viewBox="9 0 99 175">
<!-- Original BoundingBox: -9.781891 -55.790710 131.147903 119.551392 -->
  <path d="M9.000000 174.790710L108.626160 174.790710L108.626160 -0.551392L9.000000 -0.551392Z" style="stroke:rgb(100.000000%,0.000000%,0.000000%); stroke-width: 0.000000;stroke-linecap: round;stroke-linejoin: round;stroke-miterlimit: 10.000000;fill: none;"/>
  <path d="M57.167404 71.243851C61.392303 72.979050,66.130859 72.979050,70.355759 71.243851C74.150940 69.685135,77.267563 66.826660,79.147781 63.180038L79.147781 63.180038C91.442657 60.799316,90.281494 42.843140,77.782410 42.065735C77.479294 42.046875,77.175308 42.046875,76.872192 42.065735L76.872192 42.065735C70.539322 39.778564,63.605927 39.778564,57.273056 42.065735C52.085922 43.939117,47.549301 47.269058,44.207291 51.656204L44.207291 51.656204C38.936172 49.200882,32.849350 49.200882,27.578232 51.656204C18.129059 56.057693,13.391617 66.769119,16.492477 76.721222L16.492477 76.721222C14.925201 76.391739,13.306549 76.391739,11.739273 76.721222C-2.550888 79.725418,-4.714020 99.229050,8.570557 105.291534L8.570557 105.291534C5.802734 112.137177,9.327332 119.905792,16.301544 122.331497C18.804977 123.202225,21.529083 123.202225,24.032516 122.331497L24.032516 122.331497C30.027420 122.637344,36.034042 122.637344,42.028946 122.331497C46.038528 122.126938,50.039948 121.785675,54.026260 121.308304L54.026260 121.308304C60.099716 124.207489,67.157898 124.207489,73.231354 121.308304C80.567505 117.806366,85.456772 110.633240,86.034424 102.524658L86.034424 102.524658C89.645599 103.879074,93.625244 103.879074,97.236420 102.524658C109.128815 98.064270,112.968079 83.139374,104.704224 73.494019L104.704224 73.494019C116.579575 68.858826,114.315399 51.417252,101.650177 49.967789C100.973724 49.890381,100.290649 49.890381,99.614197 49.967789L99.614197 49.967789C93.785263 48.382156,87.638596 48.382156,81.809662 49.967789C77.499420 51.140305,73.464920 53.157089,69.940262 55.901123L69.940262 55.901123C67.001389 54.926285,63.826324 54.926285,60.887451 55.901123C48.449783 60.026794,45.104782 76.047058,54.852386 84.804977L54.852386 84.804977C45.187637 90.542557,47.662323 105.171417,58.676483 107.410873C59.938278 107.667435,61.238785 107.667435,62.500580 107.410873L62.500580 107.410873C65.627029 111.314728,69.914459 114.122635,74.742508 115.428268C78.751160 116.512314,82.975784 116.512314,86.984436 115.428268L86.984436 115.428268C93.332413 117.537445,100.192215 117.537445,106.540192 115.428268C111.537476 113.767868,116.025864 110.854507,119.577026 106.966187L119.577026 106.966187C122.761627 108.182022,126.282532 108.182022,129.467133 106.966187C139.551743 103.116043,142.901245 90.517899,136.060364 82.167740L136.060364 82.167740C131.475037 81.479507,126.812653 81.479507,122.227325 82.167740C119.080414 82.640076,115.990295 83.434158,113.005539 84.537491L113.005539 84.537491C110.048294 83.870544,106.979614 83.870544,104.022369 84.537491C101.911179 85.013641,99.889526 85.823746,98.033737 86.937271L98.033737 86.937271C96.944153 84.583969,94.835419 82.860397,92.312347 82.260895C91.058411 81.962952,89.752121 81.962952,88.498184 82.260895L88.498184 82.260895C93.255386 80.536484,92.413773 73.567764,87.382812 73.025497C87.135681 72.998856,86.886383 72.998856,86.639252 73.025497L86.639252 73.025497C85.964966 72.935715,85.281738 72.935715,84.607452 73.025497C84.147614 73.086731,83.694260 73.189468,83.252945 73.332458L83.252945 73.332458C81.564621 72.774689,79.741669 72.774689,78.053345 73.332458C76.727356 73.770523,75.534531 74.538574,74.587021 75.564423L74.587021 75.564423C74.322739 75.518158,74.052444 75.518158,73.788162 75.564423C70.640427 76.115524,70.253830 80.478455,73.255615 81.574478L73.255615 81.574478C72.130386 81.118530,70.871841 81.118530,69.746613 81.574478C66.645874 82.830887,65.506851 86.636078,67.407333 89.389496L67.407333 89.389496C65.122940 88.336975,62.492325 88.336975,60.207932 89.389496C57.781601 90.507401,56.009460 92.685562,55.408447 95.288544L55.408447 95.288544C53.237244 94.979095,51.051117 94.785263,48.859344 94.707886C47.404480 94.656525,45.948257 94.656525,44.493393 94.707886L44.493393 94.707886C45.832520 92.201935,44.459335 89.104782,41.703125 88.414581C41.092499 88.261673,40.453613 88.261673,39.842987 88.414581L39.842987 88.414581C40.420181 88.565323,41.026428 88.565323,41.603622 88.414581C45.340561 87.438644,46.074463 82.453888,42.777359 80.442352L42.777359 80.442352C44.704895 81.366257,46.947418 81.366257,48.874954 80.442352C51.773331 79.053116,53.423340 75.932861,52.939926 72.755310L52.939926 72.755310C55.932022 73.585770,59.093781 73.585770,62.085876 72.755310C64.309158 72.138245,66.383621 71.075241,68.183029 69.630981Z" style="fill: rgb(100.000000%,100.000000%,100.000000%);stroke: none;"/>
  <path d="M57.167404 71.243851C61.392303 72.979050,66.130859 72.979050,70.355759 71.243851C74.150940 69.685135,77.267563 66.826660,79.147781 63.180038" style="stroke:rgb(0.000000%,0.000000%,0.000000%); stroke-width: 1.000000;stroke-linecap: round;stroke-linejoin: round;stroke-miterlimit: 10.000000;fill: none;"/>
  <path d="M79.147781 63.180038C91.442657 60.799316,90.281494 42.843140,77.782410 42.065735C77.479294 42.046875,77.175308 42.046875,76.872192 42.065735" style="stroke:rgb(0.000000%,0.000000%,0.000000%); stroke-width: 1.000000;stroke-linecap: round;stroke-linejoin: round;stroke-miterlimit: 10.000000;fill: none;"/>
  <path d="M76.872192 42.065735C70.539322 39.778564,63.605927 39.778564,57.273056 42.065735C52.085922 43.939117,47.549301 47.269058,44.207291 51.656204" style="stroke:rgb(0.000000%,0.000000%,0.000000%); stroke-width: 1.000000;stroke-linecap: round;stroke-linejoin: round;stroke-miterlimit: 10.000000;fill: none;"/>
  <path d="M44.207291 51.656204C38.936172 49.200882,32.849350 49.200882,27.578232 51.656204C18.129059 56.057693,13.391617 66.769119,16.492477 76.721222" style="stroke:rgb(0.000000%,0.000000%,0.000000%); stroke-width: 1.000000;stroke-linecap: round;stroke-linejoin: round;stroke-miterlimit: 10.000000;fill: none;"/>
  <path d="M16.492477 76.721222C14.925201 76.391739,13.306549 76.391739,11.739273 76.721222C-2.550888 79.725418,-4.714020 99.229050,8.570557 105.291534" style="stroke:rgb(0.000000%,0.000000%,0.000000%); stroke-width: 1.000000;stroke-linecap: round;stroke-linejoin: round;stroke-miterlimit: 10.000000;fill: none;"/>
  <path d="M8.570557 105.291534C5.802734 112.137177,9.327332 119.905792,16.301544 122.331497C18.804977 123.202225,21.529083 123.202225,24.032516 122.331497" style="stroke:rgb(0.000000%,0.000000%,0.000000%); stroke-width: 1.000000;stroke-linecap: round;stroke-linejoin: round;stroke-miterlimit: 10.000000;fill: none;"/>
  <path d="M24.032516 122.331497C30.027420 122.637344,36.034042 122.637344,42.028946 122.331497C46.038528 122.126938,50.039948 121.785675,54.026260 121.308304" style="stroke:rgb(0.000000%,0.000000%,0.000000%); stroke-width: 1.000000;stroke-linecap: round;stroke-linejoin: round;stroke-miterlimit: 10.000000;fill: none;"/>
  <path d="M54.026260 121.308304C60.099716 124.207489,67.157898 124.207489,73.231354 121.308304C80.567505 117.806366,85.456772 110.633240,86.034424 102.524658" style="stroke:rgb(0.000000%,0.000000%,0.000000%); stroke-width: 1.000000;stroke-linecap: round;stroke-linejoin: round;stroke-miterlimit: 10.000000;fill: none;"/>
  <path d="M86.034424 102.524658C89.645599 103.879074,93.625244 103.879074,97.236420 102.524658C109.128815 98.064270,112.968079 83.139374,104.704224 73.494019" style="stroke:rgb(0.000000%,0.000000%,0.000000%); stroke-width: 1.000000;stroke-linecap: round;stroke-linejoin: round;stroke-miterlimit: 10.000000;fill: none;"/>
  <path d="M104.704224 73.494019C116.579575 68.858826,114.315399 51.417252,101.650177 49.967789C100.973724 49.890381,100.290649 49.890381,99.614197 49.967789" style="stroke:rgb(0.000000%,0.000000%,0.000000%); stroke-width: 1.000000;stroke-linecap: round;stroke-linejoin: round;stroke-miterlimit: 10.000000;fill: none;"/>
  <path d="M99.614197 49.967789C93.785263 48.382156,87.638596 48.382156,81.809662 49.967789C77.499420 51.140305,73.464920 53.157089,69.940262 55.901123" style="stroke:rgb(0.000000%,0.000000%,0.000000%); stroke-width: 1.000000;stroke-linecap: round;stroke-linejoin: round;stroke-miterlimit: 10.000000;fill: none;"/>
  <path d="M69.940262 55.901123C67.001389 54.926285,63.826324 54.926285,60.887451 55.901123C48.449783 60.026794,45.104782 76.047058,54.852386 84.804977" style="stroke:rgb(0.000000%,0.000000%,0.000000%); stroke-width: 1.000000;stroke-linecap: round;stroke-linejoin: round;stroke-miterlimit: 10.000000;fill: none;"/>
  <path d="M54.852386 84.804977C45.187637 90.542557,47.662323 105.171417,58.676483 107.410873C59.938278 107.667435,61.238785 107.667435,62.500580 107.410873" style="stroke:rgb(0.000000%,0.000000%,0.000000%); stroke-width: 1.000000;stroke-linecap: round;stroke-linejoin: round;stroke-miterlimit: 10.000000;fill: none;"/>
  <path d="M62.500580 107.410873C65.627029 111.314728,69.914459 114.122635,74.742508 115.428268C78.751160 116.512314,82.975784 116.512314,86.984436 115.428268" style="stroke:rgb(0.000000%,0.000000%,0.000000%); stroke-width: 1.000000;stroke-linecap: round;stroke-linejoin: round;stroke-miterlimit: 10.000000;fill: none;"/>
  <path d="M86.984436 115.428268C93.332413 117.537445,100.192215 117.537445,106.540192 115.428268C111.537476 113.767868,116.025864 110.854507,119.577026 106.966187" style="stroke:rgb(0.000000%,0.000000%,0.000000%); stroke-width: 1.000000;stroke-linecap: round;stroke-linejoin: round;stroke-miterlimit: 10.000000;fill: none;"/>
  <path d="M119.577026 106.966187C122.761627 108.182022,126.282532 108.182022,129.467133 106.966187C139.551743 103.116043,142.901245 90.517899,136.060364 82.167740" style="stroke:rgb(0.000000%,0.000000%,0.000000%); stroke-width: 1.000000;stroke-linecap: round;stroke-linejoin: round;stroke-miterlimit: 10.000000;fill: none;"/>
  <path d="M136.060364 82.167740C131.475037 81.479507,126.812653 81.479507,122.227325 82.167740C119.080414 82.640076,115.990295 83.434158,113.005539 84.537491" style="stroke:rgb(0.000000%,0.000000%,0.000000%); stroke-width: 1.000000;stroke-linecap: round;stroke-linejoin: round;stroke-miterlimit: 10.000000;fill: none;"/>
  <path d="M113.005539 84.537491C110.048294 83.870544,106.979614 83.870544,104.022369 84.537491C101.911179 85.013641,99.889526 85.823746,98.033737 86.937271" style="stroke:rgb(0.000000%,0.000000%,0.000000%); stroke-width: 1.000000;stroke-linecap: round;stroke-linejoin: round;stroke-miterlimit: 10.000000;fill: none;"/>
  <path d="M98.033737 86.937271C96.944153 84.583969,94.835419 82.860397,92.312347 82.260895C91.058411 81.962952,89.752121 81.962952,88.498184 82.260895" style="stroke:rgb(0.000000%,0.000000%,0.000000%); stroke-width: 1.000000;stroke-linecap: round;stroke-linejoin: round;stroke-miterlimit: 10.000000;fill: none;"/>
  <path d="M88.498184 82.260895C93.255386 80.536484,92.413773 73.567764,87.382812 73.025497C87.135681 72.998856,86.886383 72.998856,86.639252 73.025497" style="stroke:rgb(0.000000%,0.000000%,0.000000%); stroke-width: 1.000000;stroke-linecap: round;stroke-linejoin: round;stroke-miterlimit: 10.000000;fill: none;"/>
  <path d="M86.639252 73.025497C85.964966 72.935715,85.281738 72.935715,84.607452 73.025497C84.147614 73.086731,83.694260 73.189468,83.252945 73.332458" style="stroke:rgb(0.000000%,0.000000%,0.000000%); stroke-width: 1.000000;stroke-linecap: round;stroke-linejoin: round;stroke-miterlimit: 10.000000;fill: none;"/>
  <path d="M83.252945 73.332458C81.564621 72.774689,79.741669 72.774689,78.053345 73.332458C76.727356 73.770523,75.534531 74.538574,74.587021 75.564423" style="stroke:rgb(0.000000%,0.000000%,0.000000%); stroke-width: 1.000000;stroke-linecap: round;stroke-linejoin: round;stroke-miterlimit: 10.000000;fill: none;"/>
  <path d="M74.587021 75.564423C74.322739 75.518158,74.052444 75.518158,73.788162 75.564423C70.640427 76.115524,70.253830 80.478455,73.255615 81.574478" style="stroke:rgb(0.000000%,0.000000%,0.000000%); stroke-width: 1.000000;stroke-linecap: round;stroke-linejoin: round;stroke-miterlimit: 10.000000;fill: none;"/>
  <path d="M73.255615 81.574478C72.130386 81.118530,70.871841 81.118530,69.746613 81.574478C66.645874 82.830887,65.506851 86.636078,67.407333 89.389496" style="stroke:rgb(0.000000%,0.000000%,0.000000%); stroke-width: 1.000000;stroke-linecap: round;stroke-linejoin: round;stroke-miterlimit: 10.000000;fill: none;"/>
  <path d="M67.407333 89.389496C65.122940 88.336975,62.492325 88.336975,60.207932 89.389496C57.781601 90.507401,56.009460 92.685562,55.408447 95.288544" style="stroke:rgb(0.000000%,0.000000%,0.000000%); stroke-width: 1.000000;stroke-linecap: round;stroke-linejoin: round;stroke-miterlimit: 10.000000;fill: none;"/>
  <path d="M55.408447 95.288544C53.237244 94.979095,51.051117 94.785263,48.859344 94.707886C47.404480 94.656525,45.948257 94.656525,44.493393 94.707886" style="stroke:rgb(0.000000%,0.000000%,0.000000%); stroke-width: 1.000000;stroke-linecap: round;stroke-linejoin: round;stroke-miterlimit: 10.000000;fill: none;"/>
  <path d="M44.493393 94.707886C45.832520 92.201935,44.459335 89.104782,41.703125 88.414581C41.092499 88.261673,40.453613 88.261673,39.842987 88.414581" style="stroke:rgb(0.000000%,0.000000%,0.000000%); stroke-width: 1.000000;stroke-linecap: round;stroke-linejoin: round;stroke-miterlimit: 10.000000;fill: none;"/>
  <path d="M39.842987 88.414581C40.420181 88.565323,41.026428 88.565323,41.603622 88.414581C45.340561 87.438644,46.074463 82.453888,42.777359 80.442352" style="stroke:rgb(0.000000%,0.000000%,0.000000%); stroke-width: 1.000000;stroke-linecap: round;stroke-linejoin: round;stroke-miterlimit: 10.000000;fill: none;"/>
  <path d="M42.777359 80.442352C44.704895 81.366257,46.947418 81.366257,48.874954 80.442352C51.773331 79.053116,53.423340 75.932861,52.939926 72.755310" style="stroke:rgb(0.000000%,0.000000%,0.000000%); stroke-width: 1.000000;stroke-linecap: round;stroke-linejoin: round;stroke-miterlimit: 10.000000;fill: none;"/>
  <path d="M52.939926 72.755310C55.932022 73.585770,59.093781 73.585770,62.085876 72.755310C64.309158 72.138245,66.383621 71.075241,68.183029 69.630981" style="stroke:rgb(0.000000%,0.000000%,0.000000%); stroke-width: 1.000000;stroke-linecap: round;stroke-linejoin: round;stroke-miterlimit: 10.000000;fill: none;"/>
</svg>