<!-- Created by MetaPost 2.01 on 2023.01.29:2229 --><svg xmlns="http://www.w3.org/2000/svg" xmlns:xlink="http://www.w3.org/1999/xlink" version="1.1" width="99.62616" height="175.34210199999998" viewBox="44 0 99 175">
<!-- Original BoundingBox: -44.931778 -89.763550 154.520554 119.551392 -->
  <path d="M44.000000 174.790710L143.626160 174.790710L143.626160 -0.551392L44.000000 -0.551392Z" style="stroke:rgb(100.000000%,0.000000%,0.000000%); stroke-width: 0.000000;stroke-linecap: round;stroke-linejoin: round;stroke-miterlimit: 10.000000;fill: none;"/>
  <path d="M98.794388 9.411224L26.067261 154.865479" style="stroke:rgb(30.000305%,30.000305%,30.000305%); stroke-width: 0.199997;stroke-linecap: round;stroke-linejoin: round;stroke-miterlimit: 10.000000;fill: none;"/>
  <path d="M108.757004 9.411224L36.029877 154.865479" style="stroke:rgb(30.000305%,30.000305%,30.000305%); stroke-width: 0.199997;stroke-linecap: round;stroke-linejoin: round;stroke-miterlimit: 10.000000;fill: none;"/>
  <path d="M118.719620 9.411224L45.992493 154.865479" style="stroke:rgb(30.000305%,30.000305%,30.000305%); stroke-width: 0.199997;stroke-linecap: round;stroke-linejoin: round;stroke-miterlimit: 10.000000;fill: none;"/>
  <path d="M128.682236 9.411224L55.955109 154.865479" style="stroke:rgb(30.000305%,30.000305%,30.000305%); stroke-width: 0.199997;stroke-linecap: round;stroke-linejoin: round;stroke-miterlimit: 10.000000;fill: none;"/>
  <path d="M138.644852 9.411224L65.917725 154.865479" style="stroke:rgb(30.000305%,30.000305%,30.000305%); stroke-width: 0.199997;stroke-linecap: round;stroke-linejoin: round;stroke-miterlimit: 10.000000;fill: none;"/>
  <path d="M148.607468 9.411224L75.880341 154.865479" style="stroke:rgb(30.000305%,30.000305%,30.000305%); stroke-width: 0.199997;stroke-linecap: round;stroke-linejoin: round;stroke-miterlimit: 10.000000;fill: none;"/>
  <path d="M158.570084 9.411224L85.842957 154.865479" style="stroke:rgb(30.000305%,30.000305%,30.000305%); stroke-width: 0.199997;stroke-linecap: round;stroke-linejoin: round;stroke-miterlimit: 10.000000;fill: none;"/>
  <path d="M168.532700 9.411224L95.805573 154.865479" style="stroke:rgb(30.000305%,30.000305%,30.000305%); stroke-width: 0.199997;stroke-linecap: round;stroke-linejoin: round;stroke-miterlimit: 10.000000;fill: none;"/>
  <path d="M178.495316 9.411224L105.768188 154.865479" style="stroke:rgb(30.000305%,30.000305%,30.000305%); stroke-width: 0.199997;stroke-linecap: round;stroke-linejoin: round;stroke-miterlimit: 10.000000;fill: none;"/>
  <path d="M188.457932 9.411224L115.730804 154.865479" style="stroke:rgb(30.000305%,30.000305%,30.000305%); stroke-width: 0.199997;stroke-linecap: round;stroke-linejoin: round;stroke-miterlimit: 10.000000;fill: none;"/>
  <path d="M198.420547 9.411224L125.693420 154.865479" style="stroke:rgb(30.000305%,30.000305%,30.000305%); stroke-width: 0.199997;stroke-linecap: round;stroke-linejoin: round;stroke-miterlimit: 10.000000;fill: none;"/>
  <path d="M98.794388 208.663544L-0.831772 208.663544" style="stroke:rgb(30.000305%,30.000305%,30.000305%); stroke-width: 0.199997;stroke-linecap: round;stroke-linejoin: round;stroke-miterlimit: 10.000000;fill: none;"/>
  <path d="M103.775696 198.700928L4.149536 198.700928" style="stroke:rgb(30.000305%,30.000305%,30.000305%); stroke-width: 0.199997;stroke-linecap: round;stroke-linejoin: round;stroke-miterlimit: 10.000000;fill: none;"/>
  <path d="M108.757004 188.738312L9.130844 188.738312" style="stroke:rgb(30.000305%,30.000305%,30.000305%); stroke-width: 0.199997;stroke-linecap: round;stroke-linejoin: round;stroke-miterlimit: 10.000000;fill: none;"/>
  <path d="M113.738312 178.775696L14.112152 178.775696" style="stroke:rgb(30.000305%,30.000305%,30.000305%); stroke-width: 0.199997;stroke-linecap: round;stroke-linejoin: round;stroke-miterlimit: 10.000000;fill: none;"/>
  <path d="M118.719620 168.813080L19.093460 168.813080" style="stroke:rgb(30.000305%,30.000305%,30.000305%); stroke-width: 0.199997;stroke-linecap: round;stroke-linejoin: round;stroke-miterlimit: 10.000000;fill: none;"/>
  <path d="M123.700928 158.850464L24.074768 158.850464" style="stroke:rgb(30.000305%,30.000305%,30.000305%); stroke-width: 0.199997;stroke-linecap: round;stroke-linejoin: round;stroke-miterlimit: 10.000000;fill: none;"/>
  <path d="M128.682236 148.887848L29.056076 148.887848" style="stroke:rgb(30.000305%,30.000305%,30.000305%); stroke-width: 0.199997;stroke-linecap: round;stroke-linejoin: round;stroke-miterlimit: 10.000000;fill: none;"/>
  <path d="M133.663544 138.925232L34.037384 138.925232" style="stroke:rgb(30.000305%,30.000305%,30.000305%); stroke-width: 0.199997;stroke-linecap: round;stroke-linejoin: round;stroke-miterlimit: 10.000000;fill: none;"/>
  <path d="M138.644852 128.962616L39.018692 128.962616" style="stroke:rgb(30.000305%,30.000305%,30.000305%); stroke-width: 0.199997;stroke-linecap: round;stroke-linejoin: round;stroke-miterlimit: 10.000000;fill: none;"/>
  <path d="M143.626160 119.000000L44.000000 119.000000" style="stroke:rgb(30.000305%,30.000305%,30.000305%); stroke-width: 0.199997;stroke-linecap: round;stroke-linejoin: round;stroke-miterlimit: 10.000000;fill: none;"/>
  <path d="M148.607468 109.037384L48.981308 109.037384" style="stroke:rgb(30.000305%,30.000305%,30.000305%); stroke-width: 0.199997;stroke-linecap: round;stroke-linejoin: round;stroke-miterlimit: 10.000000;fill: none;"/>
  <path d="M153.588776 99.074768L53.962616 99.074768" style="stroke:rgb(30.000305%,30.000305%,30.000305%); stroke-width: 0.199997;stroke-linecap: round;stroke-linejoin: round;stroke-miterlimit: 10.000000;fill: none;"/>
  <path d="M158.570084 89.112152L58.943924 89.112152" style="stroke:rgb(30.000305%,30.000305%,30.000305%); stroke-width: 0.199997;stroke-linecap: round;stroke-linejoin: round;stroke-miterlimit: 10.000000;fill: none;"/>
  <path d="M163.551392 79.149536L63.925232 79.149536" style="stroke:rgb(30.000305%,30.000305%,30.000305%); stroke-width: 0.199997;stroke-linecap: round;stroke-linejoin: round;stroke-miterlimit: 10.000000;fill: none;"/>
  <path d="M168.532700 69.186920L68.906540 69.186920" style="stroke:rgb(30.000305%,30.000305%,30.000305%); stroke-width: 0.199997;stroke-linecap: round;stroke-linejoin: round;stroke-miterlimit: 10.000000;fill: none;"/>
  <path d="M173.514008 59.224304L73.887848 59.224304" style="stroke:rgb(30.000305%,30.000305%,30.000305%); stroke-width: 0.199997;stroke-linecap: round;stroke-linejoin: round;stroke-miterlimit: 10.000000;fill: none;"/>
  <path d="M178.495316 49.261688L78.869156 49.261688" style="stroke:rgb(30.000305%,30.000305%,30.000305%); stroke-width: 0.199997;stroke-linecap: round;stroke-linejoin: round;stroke-miterlimit: 10.000000;fill: none;"/>
  <path d="M183.476624 39.299072L83.850464 39.299072" style="stroke:rgb(30.000305%,30.000305%,30.000305%); stroke-width: 0.199997;stroke-linecap: round;stroke-linejoin: round;stroke-miterlimit: 10.000000;fill: none;"/>
  <path d="M188.457932 29.336456L88.831772 29.336456" style="stroke:rgb(30.000305%,30.000305%,30.000305%); stroke-width: 0.199997;stroke-linecap: round;stroke-linejoin: round;stroke-miterlimit: 10.000000;fill: none;"/>
  <path d="M193.439240 19.373840L93.813080 19.373840" style="stroke:rgb(30.000305%,30.000305%,30.000305%); stroke-width: 0.199997;stroke-linecap: round;stroke-linejoin: round;stroke-miterlimit: 10.000000;fill: none;"/>
  <path d="M198.420547 9.411224L98.794388 9.411224" style="stroke:rgb(30.000305%,30.000305%,30.000305%); stroke-width: 0.199997;stroke-linecap: round;stroke-linejoin: round;stroke-miterlimit: 10.000000;fill: none;"/>
  <path d="M44.000000 119.000000L143.626160 119.000000" style="stroke:rgb(100.000000%,0.000000%,0.000000%); stroke-width: 1.100006;stroke-linecap: round;stroke-linejoin: round;stroke-miterlimit: 10.000000;fill: none;"/>
  <path d="M75.382263 56.235489L175.008423 56.235489" style="stroke:rgb(100.000000%,0.000000%,0.000000%); stroke-width: 1.100006;stroke-linecap: round;stroke-linejoin: round;stroke-miterlimit: 10.000000;fill: none;"/>
  <g transform="matrix(-0.500001,-0.866025,0.866025,-0.500001,0.000000,0.000000)">
    <path d="M-108.440262 66.284217C-105.357353 65.894724,-102.495592 64.189267,-100.091186 60.891732C-91.277457 48.804050,-94.722396 24.548903,-105.264470 8.582170C-115.343615 -6.683450,-129.957051 -9.919125,-137.835032 3.725890C-141.333133 9.784759,-141.900296 18.052888,-140.408894 26.584553C-137.925901 40.788670,-132.631772 53.906969,-125.374651 63.837832" style="stroke:rgb(0.000000%,0.000000%,0.000000%); stroke-width: 2.988823;stroke-linecap: round;stroke-linejoin: round;stroke-miterlimit: 10.000000;fill: none;"/>
  </g>
  <g transform="matrix(-0.500001,-0.866025,0.866025,-0.500001,0.000000,0.000000)">
    <path d="M-125.374651 63.837832L-172.631407 -7.735999" style="stroke:rgb(0.000000%,0.000000%,0.000000%); stroke-width: 2.988823;stroke-linecap: round;stroke-linejoin: round;stroke-miterlimit: 10.000000;fill: none;"/>
  </g>
  <g transform="matrix(-0.500001,-0.866025,0.866025,-0.500001,0.000000,0.000000)">
    <path d="M-172.631407 -7.735999C-168.887381 -2.065396,-164.855386 3.428912,-162.580658 10.721039C-159.251528 21.393240,-160.467440 32.794242,-160.998140 43.845431C-161.710472 58.678917,-161.007791 73.915962,-158.913416 89.051363" style="stroke:rgb(0.000000%,0.000000%,0.000000%); stroke-width: 2.988823;stroke-linecap: round;stroke-linejoin: round;stroke-miterlimit: 10.000000;fill: none;"/>
  </g>
  <g transform="translate(44.000000 119.000000)" style="fill: rgb(0.000000%,0.000000%,100.000000%);">
    <text font-size="9.962646">0</text>
  </g>
  <path d="M44.000000 119.000000l0 0" style="stroke:rgb(0.000000%,0.000000%,100.000000%); stroke-width: 3.000000;stroke-linecap: round;stroke-linejoin: round;stroke-miterlimit: 10.000000;fill: none;"/>
  <g transform="translate(100.288788 65.655853)" style="fill: rgb(0.000000%,0.000000%,100.000000%);">
    <text font-size="9.962646">1</text>
  </g>
  <path d="M102.779465 56.235489l0 0" style="stroke:rgb(0.000000%,0.000000%,100.000000%); stroke-width: 3.000000;stroke-linecap: round;stroke-linejoin: round;stroke-miterlimit: 10.000000;fill: none;"/>
  <g transform="translate(57.574066 96.290894)" style="fill: rgb(0.000000%,0.000000%,100.000000%);">
    <text font-size="9.962646">2</text>
  </g>
  <path d="M60.064743 86.870529l0 0" style="stroke:rgb(0.000000%,0.000000%,100.000000%); stroke-width: 3.000000;stroke-linecap: round;stroke-linejoin: round;stroke-miterlimit: 10.000000;fill: none;"/>
  <g transform="translate(69.653732 126.925949)" style="fill: rgb(0.000000%,0.000000%,100.000000%);">
    <text font-size="9.962646">3</text>
  </g>
  <path d="M72.144409 117.505585l0 0" style="stroke:rgb(0.000000%,0.000000%,100.000000%); stroke-width: 3.000000;stroke-linecap: round;stroke-linejoin: round;stroke-miterlimit: 10.000000;fill: none;"/>
  <g transform="translate(107.013535 97.038101)" style="fill: rgb(0.000000%,0.000000%,100.000000%);">
    <text font-size="9.962646">4</text>
  </g>
  <path d="M109.504211 87.617737l0 0" style="stroke:rgb(0.000000%,0.000000%,100.000000%); stroke-width: 3.000000;stroke-linecap: round;stroke-linejoin: round;stroke-miterlimit: 10.000000;fill: none;"/>
  <g transform="translate(115.481949 86.078903)" style="fill: rgb(0.000000%,0.000000%,100.000000%);">
    <text font-size="9.962646">5</text>
  </g>
  <path d="M117.972626 76.658539l0 0" style="stroke:rgb(0.000000%,0.000000%,100.000000%); stroke-width: 3.000000;stroke-linecap: round;stroke-linejoin: round;stroke-miterlimit: 10.000000;fill: none;"/>
  <g transform="translate(77.125687 162.791428)" style="fill: rgb(0.000000%,0.000000%,100.000000%);">
    <text font-size="9.962646">6</text>
  </g>
  <path d="M79.616364 153.371063l0 0" style="stroke:rgb(0.000000%,0.000000%,100.000000%); stroke-width: 3.000000;stroke-linecap: round;stroke-linejoin: round;stroke-miterlimit: 10.000000;fill: none;"/>
  <g transform="translate(88.084549 144.858688)" style="fill: rgb(0.000000%,0.000000%,100.000000%);">
    <text font-size="9.962646">7</text>
  </g>
  <path d="M90.575226 135.438324l0 0" style="stroke:rgb(0.000000%,0.000000%,100.000000%); stroke-width: 3.000000;stroke-linecap: round;stroke-linejoin: round;stroke-miterlimit: 10.000000;fill: none;"/>
  <g transform="translate(115.979828 126.925949)" style="fill: rgb(0.000000%,0.000000%,100.000000%);">
    <text font-size="9.962646">8</text>
  </g>
  <path d="M118.470505 117.505585l0 0" style="stroke:rgb(0.000000%,0.000000%,100.000000%); stroke-width: 3.000000;stroke-linecap: round;stroke-linejoin: round;stroke-miterlimit: 10.000000;fill: none;"/>
  <g transform="translate(120.712173 85.581085)" style="fill: rgb(0.000000%,0.000000%,100.000000%);">
    <text font-size="9.962646">9</text>
  </g>
  <path d="M123.202850 76.160721l0 0" style="stroke:rgb(0.000000%,0.000000%,100.000000%); stroke-width: 3.000000;stroke-linecap: round;stroke-linejoin: round;stroke-miterlimit: 10.000000;fill: none;"/>
</svg>