<!-- Created by MetaPost 2.01 on 2023.01.29:2351 --><svg xmlns="http://www.w3.org/2000/svg" xmlns:xlink="http://www.w3.org/1999/xlink" version="1.1" width="99.62616" height="175.34210199999998" viewBox="7 15 99 175">
<!-- Original BoundingBox: -7.949295 -55.790710 130.369781 135.567383 -->
  <path d="M7.000000 190.790710L106.626160 190.790710L106.626160 15.448608L7.000000 15.448608Z" style="stroke:rgb(100.000000%,0.000000%,0.000000%); stroke-width: 0.000000;stroke-linecap: round;stroke-linejoin: round;stroke-miterlimit: 10.000000;fill: none;"/>
  <path d="M58.236252 76.287201C57.203125 71.928391,53.842972 68.499039,49.506104 67.377304C47.597519 66.883652,45.594727 66.883652,43.686142 67.377304L43.686142 67.377304C40.048431 65.857498,35.953644 65.857498,32.315933 67.377304C23.040619 71.252457,19.436539 82.508438,24.735992 91.050339L24.735992 91.050339C23.722244 97.564819,27.455338 103.887207,33.649246 106.145905C36.527618 107.195541,39.684113 107.195541,42.562485 106.145905L42.562485 106.145905C48.687683 107.400894,55.003754 107.400894,61.128952 106.145905C65.446335 105.261322,69.614532 103.762146,73.506271 101.694138L73.506271 101.694138C77.556656 103.373001,82.108276 103.373001,86.158661 101.694138C96.700912 97.324402,100.736755 84.491669,94.593369 74.874374L94.593369 74.874374C96.872086 67.789703,92.747604 60.242050,85.554382 58.333420C83.579926 57.809525,81.503006 57.809525,79.528549 58.333420L79.528549 58.333420C73.245148 56.632156,66.622406 56.632156,60.339005 58.333420C55.697800 59.590057,51.350418 61.750809,47.546310 64.691681L47.546310 64.691681C41.916763 61.999100,35.371017 61.999100,29.741470 64.691681C21.101593 68.824066,16.255127 78.189911,17.871887 87.629730L17.871887 87.629730C15.759384 87.074722,13.539337 87.074722,11.426834 87.629730C-2.114960 91.187500,-4.794296 109.238022,7.130234 116.575867L7.130234 116.575867C3.072388 123.500992,6.446564 132.403900,14.074997 134.899979C16.331055 135.638184,18.763687 135.638184,21.019745 134.899979L21.019745 134.899979C25.084732 137.521301,29.624329 139.320007,34.381546 140.194290C38.798492 141.006027,43.326401 141.006027,47.743347 140.194290L47.743347 140.194290C54.000275 141.238388,60.386993 141.238388,66.643921 140.194290C70.968796 139.472595,75.196503 138.256699,79.243988 136.570496L79.243988 136.570496C85.671722 139.113907,92.826828 139.113907,99.254562 136.570496C104.845032 134.358383,109.538971 130.346420,112.594604 125.168594L112.594604 125.168594C116.934143 127.112350,121.896851 127.112350,126.236389 125.168594C135.266388 121.123886,139.330795 110.542770,135.330673 101.492935L135.330673 101.492935C130.597931 100.828232,125.833603 100.411926,121.057297 100.245728C117.886475 100.135391,114.712769 100.135391,111.541946 100.245728L111.541946 100.245728C106.810699 98.346756,101.529129 98.346756,96.797882 100.245728C92.634674 101.916718,89.166931 104.959335,86.968765 108.869919L86.968765 108.869919C82.345551 108.016556,77.605179 108.016556,72.981964 108.869919C69.759048 109.464813,66.625504 110.469666,63.657669 111.859985L63.657669 111.859985C60.182449 110.281631,56.474976 109.275330,52.678650 108.879990C50.245514 108.626617,47.792633 108.626617,45.359497 108.879990L45.359497 108.879990C46.061493 105.947388,44.302078 102.988708,41.390198 102.205154C40.523575 101.971954,39.610687 101.971954,38.744064 102.205154L38.744064 102.205154C39.121582 102.293350,39.514343 102.293350,39.891861 102.205154C42.817871 101.521606,43.319504 97.569397,40.657028 96.176544L40.657028 96.176544C42.165665 96.892410,43.916138 96.892410,45.424774 96.176544C47.879242 95.011871,49.199219 92.302032,48.603180 89.651428L48.603180 89.651428C51.171585 90.468353,53.930176 90.468353,56.498581 89.651428C58.486633 89.019104,60.292389 87.915619,61.762039 86.434982L61.762039 86.434982C61.996277 86.546951,62.268616 86.546951,62.502853 86.434982C62.788284 86.298553,62.977325 86.018127,62.996719 85.702362L62.996719 85.702362C63.950226 86.084885,65.014526 86.084885,65.968033 85.702362C68.659912 84.622421,69.631561 81.308090,67.948868 78.945679L67.948868 78.945679C67.130890 78.858658,66.309769 78.804199,65.487473 78.782440C64.940613 78.767975,64.393448 78.767975,63.846588 78.782440L63.846588 78.782440C63.534775 76.081467,61.603027 73.845871,58.975861 73.145569C57.912079 72.862000,56.792572 72.862000,55.728790 73.145569Z" style="fill: rgb(100.000000%,100.000000%,100.000000%);stroke: none;"/>
  <path d="M58.236252 76.287201C57.203125 71.928391,53.842972 68.499039,49.506104 67.377304C47.597519 66.883652,45.594727 66.883652,43.686142 67.377304" style="stroke:rgb(0.000000%,0.000000%,0.000000%); stroke-width: 1.000000;stroke-linecap: round;stroke-linejoin: round;stroke-miterlimit: 10.000000;fill: none;"/>
  <path d="M43.686142 67.377304C40.048431 65.857498,35.953644 65.857498,32.315933 67.377304C23.040619 71.252457,19.436539 82.508438,24.735992 91.050339" style="stroke:rgb(0.000000%,0.000000%,0.000000%); stroke-width: 1.000000;stroke-linecap: round;stroke-linejoin: round;stroke-miterlimit: 10.000000;fill: none;"/>
  <path d="M24.735992 91.050339C23.722244 97.564819,27.455338 103.887207,33.649246 106.145905C36.527618 107.195541,39.684113 107.195541,42.562485 106.145905" style="stroke:rgb(0.000000%,0.000000%,0.000000%); stroke-width: 1.000000;stroke-linecap: round;stroke-linejoin: round;stroke-miterlimit: 10.000000;fill: none;"/>
  <path d="M42.562485 106.145905C48.687683 107.400894,55.003754 107.400894,61.128952 106.145905C65.446335 105.261322,69.614532 103.762146,73.506271 101.694138" style="stroke:rgb(0.000000%,0.000000%,0.000000%); stroke-width: 1.000000;stroke-linecap: round;stroke-linejoin: round;stroke-miterlimit: 10.000000;fill: none;"/>
  <path d="M73.506271 101.694138C77.556656 103.373001,82.108276 103.373001,86.158661 101.694138C96.700912 97.324402,100.736755 84.491669,94.593369 74.874374" style="stroke:rgb(0.000000%,0.000000%,0.000000%); stroke-width: 1.000000;stroke-linecap: round;stroke-linejoin: round;stroke-miterlimit: 10.000000;fill: none;"/>
  <path d="M94.593369 74.874374C96.872086 67.789703,92.747604 60.242050,85.554382 58.333420C83.579926 57.809525,81.503006 57.809525,79.528549 58.333420" style="stroke:rgb(0.000000%,0.000000%,0.000000%); stroke-width: 1.000000;stroke-linecap: round;stroke-linejoin: round;stroke-miterlimit: 10.000000;fill: none;"/>
  <path d="M79.528549 58.333420C73.245148 56.632156,66.622406 56.632156,60.339005 58.333420C55.697800 59.590057,51.350418 61.750809,47.546310 64.691681" style="stroke:rgb(0.000000%,0.000000%,0.000000%); stroke-width: 1.000000;stroke-linecap: round;stroke-linejoin: round;stroke-miterlimit: 10.000000;fill: none;"/>
  <path d="M47.546310 64.691681C41.916763 61.999100,35.371017 61.999100,29.741470 64.691681C21.101593 68.824066,16.255127 78.189911,17.871887 87.629730" style="stroke:rgb(0.000000%,0.000000%,0.000000%); stroke-width: 1.000000;stroke-linecap: round;stroke-linejoin: round;stroke-miterlimit: 10.000000;fill: none;"/>
  <path d="M17.871887 87.629730C15.759384 87.074722,13.539337 87.074722,11.426834 87.629730C-2.114960 91.187500,-4.794296 109.238022,7.130234 116.575867" style="stroke:rgb(0.000000%,0.000000%,0.000000%); stroke-width: 1.000000;stroke-linecap: round;stroke-linejoin: round;stroke-miterlimit: 10.000000;fill: none;"/>
  <path d="M7.130234 116.575867C3.072388 123.500992,6.446564 132.403900,14.074997 134.899979C16.331055 135.638184,18.763687 135.638184,21.019745 134.899979" style="stroke:rgb(0.000000%,0.000000%,0.000000%); stroke-width: 1.000000;stroke-linecap: round;stroke-linejoin: round;stroke-miterlimit: 10.000000;fill: none;"/>
  <path d="M21.019745 134.899979C25.084732 137.521301,29.624329 139.320007,34.381546 140.194290C38.798492 141.006027,43.326401 141.006027,47.743347 140.194290" style="stroke:rgb(0.000000%,0.000000%,0.000000%); stroke-width: 1.000000;stroke-linecap: round;stroke-linejoin: round;stroke-miterlimit: 10.000000;fill: none;"/>
  <path d="M47.743347 140.194290C54.000275 141.238388,60.386993 141.238388,66.643921 140.194290C70.968796 139.472595,75.196503 138.256699,79.243988 136.570496" style="stroke:rgb(0.000000%,0.000000%,0.000000%); stroke-width: 1.000000;stroke-linecap: round;stroke-linejoin: round;stroke-miterlimit: 10.000000;fill: none;"/>
  <path d="M79.243988 136.570496C85.671722 139.113907,92.826828 139.113907,99.254562 136.570496C104.845032 134.358383,109.538971 130.346420,112.594604 125.168594" style="stroke:rgb(0.000000%,0.000000%,0.000000%); stroke-width: 1.000000;stroke-linecap: round;stroke-linejoin: round;stroke-miterlimit: 10.000000;fill: none;"/>
  <path d="M112.594604 125.168594C116.934143 127.112350,121.896851 127.112350,126.236389 125.168594C135.266388 121.123886,139.330795 110.542770,135.330673 101.492935" style="stroke:rgb(0.000000%,0.000000%,0.000000%); stroke-width: 1.000000;stroke-linecap: round;stroke-linejoin: round;stroke-miterlimit: 10.000000;fill: none;"/>
  <path d="M135.330673 101.492935C130.597931 100.828232,125.833603 100.411926,121.057297 100.245728C117.886475 100.135391,114.712769 100.135391,111.541946 100.245728" style="stroke:rgb(0.000000%,0.000000%,0.000000%); stroke-width: 1.000000;stroke-linecap: round;stroke-linejoin: round;stroke-miterlimit: 10.000000;fill: none;"/>
  <path d="M111.541946 100.245728C106.810699 98.346756,101.529129 98.346756,96.797882 100.245728C92.634674 101.916718,89.166931 104.959335,86.968765 108.869919" style="stroke:rgb(0.000000%,0.000000%,0.000000%); stroke-width: 1.000000;stroke-linecap: round;stroke-linejoin: round;stroke-miterlimit: 10.000000;fill: none;"/>
  <path d="M86.968765 108.869919C82.345551 108.016556,77.605179 108.016556,72.981964 108.869919C69.759048 109.464813,66.625504 110.469666,63.657669 111.859985" style="stroke:rgb(0.000000%,0.000000%,0.000000%); stroke-width: 1.000000;stroke-linecap: round;stroke-linejoin: round;stroke-miterlimit: 10.000000;fill: none;"/>
  <path d="M63.657669 111.859985C60.182449 110.281631,56.474976 109.275330,52.678650 108.879990C50.245514 108.626617,47.792633 108.626617,45.359497 108.879990" style="stroke:rgb(0.000000%,0.000000%,0.000000%); stroke-width: 1.000000;stroke-linecap: round;stroke-linejoin: round;stroke-miterlimit: 10.000000;fill: none;"/>
  <path d="M45.359497 108.879990C46.061493 105.947388,44.302078 102.988708,41.390198 102.205154C40.523575 101.971954,39.610687 101.971954,38.744064 102.205154" style="stroke:rgb(0.000000%,0.000000%,0.000000%); stroke-width: 1.000000;stroke-linecap: round;stroke-linejoin: round;stroke-miterlimit: 10.000000;fill: none;"/>
  <path d="M38.744064 102.205154C39.121582 102.293350,39.514343 102.293350,39.891861 102.205154C42.817871 101.521606,43.319504 97.569397,40.657028 96.176544" style="stroke:rgb(0.000000%,0.000000%,0.000000%); stroke-width: 1.000000;stroke-linecap: round;stroke-linejoin: round;stroke-miterlimit: 10.000000;fill: none;"/>
  <path d="M40.657028 96.176544C42.165665 96.892410,43.916138 96.892410,45.424774 96.176544C47.879242 95.011871,49.199219 92.302032,48.603180 89.651428" style="stroke:rgb(0.000000%,0.000000%,0.000000%); stroke-width: 1.000000;stroke-linecap: round;stroke-linejoin: round;stroke-miterlimit: 10.000000;fill: none;"/>
  <path d="M48.603180 89.651428C51.171585 90.468353,53.930176 90.468353,56.498581 89.651428C58.486633 89.019104,60.292389 87.915619,61.762039 86.434982" style="stroke:rgb(0.000000%,0.000000%,0.000000%); stroke-width: 1.000000;stroke-linecap: round;stroke-linejoin: round;stroke-miterlimit: 10.000000;fill: none;"/>
  <path d="M61.762039 86.434982C61.996277 86.546951,62.268616 86.546951,62.502853 86.434982C62.788284 86.298553,62.977325 86.018127,62.996719 85.702362" style="stroke:rgb(0.000000%,0.000000%,0.000000%); stroke-width: 1.000000;stroke-linecap: round;stroke-linejoin: round;stroke-miterlimit: 10.000000;fill: none;"/>
  <path d="M62.996719 85.702362C63.950226 86.084885,65.014526 86.084885,65.968033 85.702362C68.659912 84.622421,69.631561 81.308090,67.948868 78.945679" style="stroke:rgb(0.000000%,0.000000%,0.000000%); stroke-width: 1.000000;stroke-linecap: round;stroke-linejoin: round;stroke-miterlimit: 10.000000;fill: none;"/>
  <path d="M67.948868 78.945679C67.130890 78.858658,66.309769 78.804199,65.487473 78.782440C64.940613 78.767975,64.393448 78.767975,63.846588 78.782440" style="stroke:rgb(0.000000%,0.000000%,0.000000%); stroke-width: 1.000000;stroke-linecap: round;stroke-linejoin: round;stroke-miterlimit: 10.000000;fill: none;"/>
  <path d="M63.846588 78.782440C63.534775 76.081467,61.603027 73.845871,58.975861 73.145569C57.912079 72.862000,56.792572 72.862000,55.728790 73.145569" style="stroke:rgb(0.000000%,0.000000%,0.000000%); stroke-width: 1.000000;stroke-linecap: round;stroke-linejoin: round;stroke-miterlimit: 10.000000;fill: none;"/>
  <path d="M79.524078 12.318176C74.843979 11.278305,69.992691 11.278305,65.312592 12.318176C61.978714 13.058929,58.781784 14.318436,55.838516 16.050674L55.838516 16.050674C55.140823 15.963257,54.434937 15.963257,53.737244 16.050674C40.676727 17.687057,39.565613 36.189484,52.336426 39.377121L52.336426 39.377121C58.386276 39.742203,64.452637 39.742203,70.502487 39.377121C74.554108 39.132629,78.594193 38.724594,82.612885 38.154007L82.612885 38.154007C88.866943 41.012726,96.054596 41.012726,102.308655 38.154007C108.831253 35.172531,113.657074 29.403015,115.438843 22.456161L115.438843 22.456161C127.866440 20.192947,126.762390 2.030960,114.152161 1.289764C113.866486 1.272980,113.580078 1.272980,113.294403 1.289764L113.294403 1.289764C109.052383 -0.519775,104.255600 -0.519775,100.013580 1.289764C96.046600 2.981979,92.878387 6.129257,91.159912 10.084930L91.159912 10.084930C87.815369 9.515320,84.398605 9.515320,81.054062 10.084930C78.738632 10.479263,76.477478 11.143967,74.317001 12.065369Z" style="fill: rgb(100.000000%,100.000000%,100.000000%);stroke: none;"/>
  <path d="M79.524078 12.318176C74.843979 11.278305,69.992691 11.278305,65.312592 12.318176C61.978714 13.058929,58.781784 14.318436,55.838516 16.050674" style="stroke:rgb(0.000000%,0.000000%,0.000000%); stroke-width: 1.000000;stroke-linecap: round;stroke-linejoin: round;stroke-miterlimit: 10.000000;fill: none;"/>
  <path d="M55.838516 16.050674C55.140823 15.963257,54.434937 15.963257,53.737244 16.050674C40.676727 17.687057,39.565613 36.189484,52.336426 39.377121" style="stroke:rgb(0.000000%,0.000000%,0.000000%); stroke-width: 1.000000;stroke-linecap: round;stroke-linejoin: round;stroke-miterlimit: 10.000000;fill: none;"/>
  <path d="M52.336426 39.377121C58.386276 39.742203,64.452637 39.742203,70.502487 39.377121C74.554108 39.132629,78.594193 38.724594,82.612885 38.154007" style="stroke:rgb(0.000000%,0.000000%,0.000000%); stroke-width: 1.000000;stroke-linecap: round;stroke-linejoin: round;stroke-miterlimit: 10.000000;fill: none;"/>
  <path d="M82.612885 38.154007C88.866943 41.012726,96.054596 41.012726,102.308655 38.154007C108.831253 35.172531,113.657074 29.403015,115.438843 22.456161" style="stroke:rgb(0.000000%,0.000000%,0.000000%); stroke-width: 1.000000;stroke-linecap: round;stroke-linejoin: round;stroke-miterlimit: 10.000000;fill: none;"/>
  <path d="M115.438843 22.456161C127.866440 20.192947,126.762390 2.030960,114.152161 1.289764C113.866486 1.272980,113.580078 1.272980,113.294403 1.289764" style="stroke:rgb(0.000000%,0.000000%,0.000000%); stroke-width: 1.000000;stroke-linecap: round;stroke-linejoin: round;stroke-miterlimit: 10.000000;fill: none;"/>
  <path d="M113.294403 1.289764C109.052383 -0.519775,104.255600 -0.519775,100.013580 1.289764C96.046600 2.981979,92.878387 6.129257,91.159912 10.084930" style="stroke:rgb(0.000000%,0.000000%,0.000000%); stroke-width: 1.000000;stroke-linecap: round;stroke-linejoin: round;stroke-miterlimit: 10.000000;fill: none;"/>
  <path d="M91.159912 10.084930C87.815369 9.515320,84.398605 9.515320,81.054062 10.084930C78.738632 10.479263,76.477478 11.143967,74.317001 12.065369" style="stroke:rgb(0.000000%,0.000000%,0.000000%); stroke-width: 1.000000;stroke-linecap: round;stroke-linejoin: round;stroke-miterlimit: 10.000000;fill: none;"/>
</svg>