<!-- Created by MetaPost 2.01 on 2023.01.29:2348 --><svg xmlns="http://www.w3.org/2000/svg" xmlns:xlink="http://www.w3.org/1999/xlink" version="1.1" width="99.62616" height="175.34210199999998" viewBox="3 0 99 175">
<!-- Original BoundingBox: -3.622635 -55.790710 130.671066 119.551392 -->
  <path d="M3.000000 174.790710L102.626160 174.790710L102.626160 -0.551392L3.000000 -0.551392Z" style="stroke:rgb(100.000000%,0.000000%,0.000000%); stroke-width: 0.000000;stroke-linecap: round;stroke-linejoin: round;stroke-miterlimit: 10.000000;fill: none;"/>
  <path d="M23.987839 74.459152C19.561111 72.401917,14.452362 72.401917,10.025635 74.459152C2.008041 78.185165,-1.981842 87.296997,0.717743 95.715851L0.717743 95.715851C2.804779 99.518326,6.290619 102.358582,10.436295 103.634476C13.602524 104.608948,16.988617 104.608948,20.154846 103.634476L20.154846 103.634476C26.050659 106.470535,32.916458 106.470535,38.812271 103.634476C47.261307 99.570251,52.241150 90.631378,51.250244 81.308167L51.250244 81.308167C56.452042 83.690979,62.433487 83.690979,67.635284 81.308167C77.628952 76.730331,82.394516 65.214767,78.558365 54.913620L78.558365 54.913620C81.545670 55.910980,84.776138 55.910980,87.763443 54.913620C100.248886 50.745178,103.637573 34.682343,93.899994 25.825623L93.899994 25.825623C92.886871 19.827316,88.456268 14.977478,82.573746 13.427628C80.099091 12.775635,77.497757 12.775635,75.023102 13.427628L75.023102 13.427628C68.983276 10.556000,61.971603 10.556000,55.931778 13.427628C48.799515 16.818665,43.968567 23.702240,43.204559 31.562561L43.204559 31.562561C38.568985 29.562576,33.313858 29.562576,28.678284 31.562561C17.854187 36.232544,13.371872 49.185257,18.994339 59.546616L18.994339 59.546616C16.928833 59.018631,14.763702 59.018631,12.698196 59.546616C-1.155746 63.087906,-3.805237 81.615082,8.500885 88.897400L8.500885 88.897400C-2.161133 94.239868,0.121979 110.081192,11.858704 112.195450C12.969040 112.395462,14.106186 112.395462,15.216522 112.195450L15.216522 112.195450C16.762924 117.535736,20.813385 121.788208,26.072159 123.592468C29.590057 124.799454,33.409897 124.799454,36.927795 123.592468L36.927795 123.592468C43.136734 125.121719,49.624008 125.121719,55.832947 123.592468C60.330414 122.484741,64.596939 120.591583,68.436066 118.000183L68.436066 118.000183C73.715591 120.466919,79.816849 120.466919,85.096375 118.000183C94.429077 113.639694,99.155746 103.097672,96.202972 93.228806L96.202972 93.228806C97.437164 93.445160,98.699570 93.445160,99.933762 93.228806C114.608307 90.656403,116.413132 70.318619,102.420898 65.202255L102.420898 65.202255C98.029282 62.284668,93.038818 60.389938,87.817459 59.657761C84.588135 59.204926,81.311401 59.204926,78.082077 59.657761L78.082077 59.657761C74.208252 58.082520,69.872391 58.082520,65.998566 59.657761C55.416809 63.960678,51.505035 76.930786,57.943100 86.366882L57.943100 86.366882C48.858429 92.344284,51.454605 106.309036,62.080536 108.622055C63.443726 108.918793,64.854782 108.918793,66.217972 108.622055L66.217972 108.622055C69.924194 111.713577,74.320877 113.866394,79.035645 114.898178C83.258240 115.822250,87.630722 115.822250,91.853317 114.898178L91.853317 114.898178C98.059082 117.689087,105.162872 117.689087,111.368637 114.898178C117.635681 112.079712,122.378891 106.690369,124.378510 100.116089L124.378510 100.116089C136.832596 97.875320,135.739487 79.672134,123.106750 78.937836C122.824387 78.921417,122.541306 78.921417,122.258942 78.937836L122.258942 78.937836C118.890076 77.474670,115.065201 77.474670,111.696335 78.937836C108.473541 80.337555,105.940033 82.961975,104.654770 86.232117L104.654770 86.232117C102.729813 85.927856,100.788620 85.737183,98.841263 85.661102C97.549896 85.610641,96.257065 85.610641,94.965698 85.661102L94.965698 85.661102C96.810730 82.671509,95.201340 78.751801,91.787827 77.921310C91.091797 77.751968,90.365326 77.751968,89.669296 77.921310L89.669296 77.921310C89.000198 77.599060,88.220764 77.599060,87.551666 77.921310C86.650925 78.355133,86.095566 79.284195,86.139954 80.282974L86.139954 80.282974C83.511139 79.256775,80.592529 79.256775,77.963715 80.282974C75.701019 81.166245,73.787598 82.762543,72.513031 84.830261L72.513031 84.830261C72.216217 84.732605,71.895920 84.732605,71.599106 84.830261C70.322968 85.250107,69.983704 86.896240,70.989838 87.786453L70.989838 87.786453C70.026047 87.367630,68.931641 87.367630,67.967850 87.786453C65.763748 88.744247,64.837173 91.372437,65.953232 93.500778L65.953232 93.500778C64.651520 92.979874,63.199249 92.979874,61.897537 93.500778C60.754974 93.957993,59.801651 94.789810,59.193817 95.859863L59.193817 95.859863C56.987900 93.719223,54.192093 92.287354,51.165894 91.748352C49.395874 91.433090,47.584091 91.433090,45.814072 91.748352L45.814072 91.748352C48.845139 88.218521,47.015335 82.731445,42.472336 81.727371C41.738602 81.565201,40.978302 81.565201,40.244568 81.727371L40.244568 81.727371C40.829880 81.821213,41.426422 81.821213,42.011734 81.727371C49.895279 80.463318,50.773056 69.465546,43.189804 66.967041L43.189804 66.967041C45.421066 67.869766,47.915848 67.869766,50.147110 66.967041C56.318558 64.470200,58.579453 56.892776,54.785202 51.422440L54.785202 51.422440C57.010910 52.469330,59.587509 52.469330,61.813217 51.422440C65.620132 49.631805,67.594681 45.368774,66.498444 41.307098L66.498444 41.307098C65.869370 40.643082,65.046188 40.195297,64.146942 40.027939C63.628845 39.931519,63.097412 39.931519,62.579315 40.027939L62.579315 40.027939L61.660538 40.027939L61.048035 40.032211L61.048035 40.032211C57.395264 38.399048,53.219803 38.399048,49.567032 40.032211C41.919998 43.451218,38.493088 52.422485,41.913223 60.069016L41.913223 60.069016C37.694748 58.054016,32.791473 58.054016,28.572998 60.069016C22.025375 63.196548,18.382324 70.320587,19.679749 77.459885Z" style="fill: rgb(100.000000%,100.000000%,100.000000%);stroke: none;"/>
  <path d="M23.987839 74.459152C19.561111 72.401917,14.452362 72.401917,10.025635 74.459152C2.008041 78.185165,-1.981842 87.296997,0.717743 95.715851" style="stroke:rgb(0.000000%,0.000000%,0.000000%); stroke-width: 1.000000;stroke-linecap: round;stroke-linejoin: round;stroke-miterlimit: 10.000000;fill: none;"/>
  <path d="M0.717743 95.715851C2.804779 99.518326,6.290619 102.358582,10.436295 103.634476C13.602524 104.608948,16.988617 104.608948,20.154846 103.634476" style="stroke:rgb(0.000000%,0.000000%,0.000000%); stroke-width: 1.000000;stroke-linecap: round;stroke-linejoin: round;stroke-miterlimit: 10.000000;fill: none;"/>
  <path d="M20.154846 103.634476C26.050659 106.470535,32.916458 106.470535,38.812271 103.634476C47.261307 99.570251,52.241150 90.631378,51.250244 81.308167" style="stroke:rgb(0.000000%,0.000000%,0.000000%); stroke-width: 1.000000;stroke-linecap: round;stroke-linejoin: round;stroke-miterlimit: 10.000000;fill: none;"/>
  <path d="M51.250244 81.308167C56.452042 83.690979,62.433487 83.690979,67.635284 81.308167C77.628952 76.730331,82.394516 65.214767,78.558365 54.913620" style="stroke:rgb(0.000000%,0.000000%,0.000000%); stroke-width: 1.000000;stroke-linecap: round;stroke-linejoin: round;stroke-miterlimit: 10.000000;fill: none;"/>
  <path d="M78.558365 54.913620C81.545670 55.910980,84.776138 55.910980,87.763443 54.913620C100.248886 50.745178,103.637573 34.682343,93.899994 25.825623" style="stroke:rgb(0.000000%,0.000000%,0.000000%); stroke-width: 1.000000;stroke-linecap: round;stroke-linejoin: round;stroke-miterlimit: 10.000000;fill: none;"/>
  <path d="M93.899994 25.825623C92.886871 19.827316,88.456268 14.977478,82.573746 13.427628C80.099091 12.775635,77.497757 12.775635,75.023102 13.427628" style="stroke:rgb(0.000000%,0.000000%,0.000000%); stroke-width: 1.000000;stroke-linecap: round;stroke-linejoin: round;stroke-miterlimit: 10.000000;fill: none;"/>
  <path d="M75.023102 13.427628C68.983276 10.556000,61.971603 10.556000,55.931778 13.427628C48.799515 16.818665,43.968567 23.702240,43.204559 31.562561" style="stroke:rgb(0.000000%,0.000000%,0.000000%); stroke-width: 1.000000;stroke-linecap: round;stroke-linejoin: round;stroke-miterlimit: 10.000000;fill: none;"/>
  <path d="M43.204559 31.562561C38.568985 29.562576,33.313858 29.562576,28.678284 31.562561C17.854187 36.232544,13.371872 49.185257,18.994339 59.546616" style="stroke:rgb(0.000000%,0.000000%,0.000000%); stroke-width: 1.000000;stroke-linecap: round;stroke-linejoin: round;stroke-miterlimit: 10.000000;fill: none;"/>
  <path d="M18.994339 59.546616C16.928833 59.018631,14.763702 59.018631,12.698196 59.546616C-1.155746 63.087906,-3.805237 81.615082,8.500885 88.897400" style="stroke:rgb(0.000000%,0.000000%,0.000000%); stroke-width: 1.000000;stroke-linecap: round;stroke-linejoin: round;stroke-miterlimit: 10.000000;fill: none;"/>
  <path d="M8.500885 88.897400C-2.161133 94.239868,0.121979 110.081192,11.858704 112.195450C12.969040 112.395462,14.106186 112.395462,15.216522 112.195450" style="stroke:rgb(0.000000%,0.000000%,0.000000%); stroke-width: 1.000000;stroke-linecap: round;stroke-linejoin: round;stroke-miterlimit: 10.000000;fill: none;"/>
  <path d="M15.216522 112.195450C16.762924 117.535736,20.813385 121.788208,26.072159 123.592468C29.590057 124.799454,33.409897 124.799454,36.927795 123.592468" style="stroke:rgb(0.000000%,0.000000%,0.000000%); stroke-width: 1.000000;stroke-linecap: round;stroke-linejoin: round;stroke-miterlimit: 10.000000;fill: none;"/>
  <path d="M36.927795 123.592468C43.136734 125.121719,49.624008 125.121719,55.832947 123.592468C60.330414 122.484741,64.596939 120.591583,68.436066 118.000183" style="stroke:rgb(0.000000%,0.000000%,0.000000%); stroke-width: 1.000000;stroke-linecap: round;stroke-linejoin: round;stroke-miterlimit: 10.000000;fill: none;"/>
  <path d="M68.436066 118.000183C73.715591 120.466919,79.816849 120.466919,85.096375 118.000183C94.429077 113.639694,99.155746 103.097672,96.202972 93.228806" style="stroke:rgb(0.000000%,0.000000%,0.000000%); stroke-width: 1.000000;stroke-linecap: round;stroke-linejoin: round;stroke-miterlimit: 10.000000;fill: none;"/>
  <path d="M96.202972 93.228806C97.437164 93.445160,98.699570 93.445160,99.933762 93.228806C114.608307 90.656403,116.413132 70.318619,102.420898 65.202255" style="stroke:rgb(0.000000%,0.000000%,0.000000%); stroke-width: 1.000000;stroke-linecap: round;stroke-linejoin: round;stroke-miterlimit: 10.000000;fill: none;"/>
  <path d="M102.420898 65.202255C98.029282 62.284668,93.038818 60.389938,87.817459 59.657761C84.588135 59.204926,81.311401 59.204926,78.082077 59.657761" style="stroke:rgb(0.000000%,0.000000%,0.000000%); stroke-width: 1.000000;stroke-linecap: round;stroke-linejoin: round;stroke-miterlimit: 10.000000;fill: none;"/>
  <path d="M78.082077 59.657761C74.208252 58.082520,69.872391 58.082520,65.998566 59.657761C55.416809 63.960678,51.505035 76.930786,57.943100 86.366882" style="stroke:rgb(0.000000%,0.000000%,0.000000%); stroke-width: 1.000000;stroke-linecap: round;stroke-linejoin: round;stroke-miterlimit: 10.000000;fill: none;"/>
  <path d="M57.943100 86.366882C48.858429 92.344284,51.454605 106.309036,62.080536 108.622055C63.443726 108.918793,64.854782 108.918793,66.217972 108.622055" style="stroke:rgb(0.000000%,0.000000%,0.000000%); stroke-width: 1.000000;stroke-linecap: round;stroke-linejoin: round;stroke-miterlimit: 10.000000;fill: none;"/>
  <path d="M66.217972 108.622055C69.924194 111.713577,74.320877 113.866394,79.035645 114.898178C83.258240 115.822250,87.630722 115.822250,91.853317 114.898178" style="stroke:rgb(0.000000%,0.000000%,0.000000%); stroke-width: 1.000000;stroke-linecap: round;stroke-linejoin: round;stroke-miterlimit: 10.000000;fill: none;"/>
  <path d="M91.853317 114.898178C98.059082 117.689087,105.162872 117.689087,111.368637 114.898178C117.635681 112.079712,122.378891 106.690369,124.378510 100.116089" style="stroke:rgb(0.000000%,0.000000%,0.000000%); stroke-width: 1.000000;stroke-linecap: round;stroke-linejoin: round;stroke-miterlimit: 10.000000;fill: none;"/>
  <path d="M124.378510 100.116089C136.832596 97.875320,135.739487 79.672134,123.106750 78.937836C122.824387 78.921417,122.541306 78.921417,122.258942 78.937836" style="stroke:rgb(0.000000%,0.000000%,0.000000%); stroke-width: 1.000000;stroke-linecap: round;stroke-linejoin: round;stroke-miterlimit: 10.000000;fill: none;"/>
  <path d="M122.258942 78.937836C118.890076 77.474670,115.065201 77.474670,111.696335 78.937836C108.473541 80.337555,105.940033 82.961975,104.654770 86.232117" style="stroke:rgb(0.000000%,0.000000%,0.000000%); stroke-width: 1.000000;stroke-linecap: round;stroke-linejoin: round;stroke-miterlimit: 10.000000;fill: none;"/>
  <path d="M104.654770 86.232117C102.729813 85.927856,100.788620 85.737183,98.841263 85.661102C97.549896 85.610641,96.257065 85.610641,94.965698 85.661102" style="stroke:rgb(0.000000%,0.000000%,0.000000%); stroke-width: 1.000000;stroke-linecap: round;stroke-linejoin: round;stroke-miterlimit: 10.000000;fill: none;"/>
  <path d="M94.965698 85.661102C96.810730 82.671509,95.201340 78.751801,91.787827 77.921310C91.091797 77.751968,90.365326 77.751968,89.669296 77.921310" style="stroke:rgb(0.000000%,0.000000%,0.000000%); stroke-width: 1.000000;stroke-linecap: round;stroke-linejoin: round;stroke-miterlimit: 10.000000;fill: none;"/>
  <path d="M89.669296 77.921310C89.000198 77.599060,88.220764 77.599060,87.551666 77.921310C86.650925 78.355133,86.095566 79.284195,86.139954 80.282974" style="stroke:rgb(0.000000%,0.000000%,0.000000%); stroke-width: 1.000000;stroke-linecap: round;stroke-linejoin: round;stroke-miterlimit: 10.000000;fill: none;"/>
  <path d="M86.139954 80.282974C83.511139 79.256775,80.592529 79.256775,77.963715 80.282974C75.701019 81.166245,73.787598 82.762543,72.513031 84.830261" style="stroke:rgb(0.000000%,0.000000%,0.000000%); stroke-width: 1.000000;stroke-linecap: round;stroke-linejoin: round;stroke-miterlimit: 10.000000;fill: none;"/>
  <path d="M72.513031 84.830261C72.216217 84.732605,71.895920 84.732605,71.599106 84.830261C70.322968 85.250107,69.983704 86.896240,70.989838 87.786453" style="stroke:rgb(0.000000%,0.000000%,0.000000%); stroke-width: 1.000000;stroke-linecap: round;stroke-linejoin: round;stroke-miterlimit: 10.000000;fill: none;"/>
  <path d="M70.989838 87.786453C70.026047 87.367630,68.931641 87.367630,67.967850 87.786453C65.763748 88.744247,64.837173 91.372437,65.953232 93.500778" style="stroke:rgb(0.000000%,0.000000%,0.000000%); stroke-width: 1.000000;stroke-linecap: round;stroke-linejoin: round;stroke-miterlimit: 10.000000;fill: none;"/>
  <path d="M65.953232 93.500778C64.651520 92.979874,63.199249 92.979874,61.897537 93.500778C60.754974 93.957993,59.801651 94.789810,59.193817 95.859863" style="stroke:rgb(0.000000%,0.000000%,0.000000%); stroke-width: 1.000000;stroke-linecap: round;stroke-linejoin: round;stroke-miterlimit: 10.000000;fill: none;"/>
  <path d="M59.193817 95.859863C56.987900 93.719223,54.192093 92.287354,51.165894 91.748352C49.395874 91.433090,47.584091 91.433090,45.814072 91.748352" style="stroke:rgb(0.000000%,0.000000%,0.000000%); stroke-width: 1.000000;stroke-linecap: round;stroke-linejoin: round;stroke-miterlimit: 10.000000;fill: none;"/>
  <path d="M45.814072 91.748352C48.845139 88.218521,47.015335 82.731445,42.472336 81.727371C41.738602 81.565201,40.978302 81.565201,40.244568 81.727371" style="stroke:rgb(0.000000%,0.000000%,0.000000%); stroke-width: 1.000000;stroke-linecap: round;stroke-linejoin: round;stroke-miterlimit: 10.000000;fill: none;"/>
  <path d="M40.244568 81.727371C40.829880 81.821213,41.426422 81.821213,42.011734 81.727371C49.895279 80.463318,50.773056 69.465546,43.189804 66.967041" style="stroke:rgb(0.000000%,0.000000%,0.000000%); stroke-width: 1.000000;stroke-linecap: round;stroke-linejoin: round;stroke-miterlimit: 10.000000;fill: none;"/>
  <path d="M43.189804 66.967041C45.421066 67.869766,47.915848 67.869766,50.147110 66.967041C56.318558 64.470200,58.579453 56.892776,54.785202 51.422440" style="stroke:rgb(0.000000%,0.000000%,0.000000%); stroke-width: 1.000000;stroke-linecap: round;stroke-linejoin: round;stroke-miterlimit: 10.000000;fill: none;"/>
  <path d="M54.785202 51.422440C57.010910 52.469330,59.587509 52.469330,61.813217 51.422440C65.620132 49.631805,67.594681 45.368774,66.498444 41.307098" style="stroke:rgb(0.000000%,0.000000%,0.000000%); stroke-width: 1.000000;stroke-linecap: round;stroke-linejoin: round;stroke-miterlimit: 10.000000;fill: none;"/>
  <path d="M66.498444 41.307098C65.869370 40.643082,65.046188 40.195297,64.146942 40.027939C63.628845 39.931519,63.097412 39.931519,62.579315 40.027939" style="stroke:rgb(0.000000%,0.000000%,0.000000%); stroke-width: 1.000000;stroke-linecap: round;stroke-linejoin: round;stroke-miterlimit: 10.000000;fill: none;"/>
  <path d="M62.579315 40.027939L61.660538 40.027939L61.048035 40.032211" style="stroke:rgb(0.000000%,0.000000%,0.000000%); stroke-width: 1.000000;stroke-linecap: round;stroke-linejoin: round;stroke-miterlimit: 10.000000;fill: none;"/>
  <path d="M61.048035 40.032211C57.395264 38.399048,53.219803 38.399048,49.567032 40.032211C41.919998 43.451218,38.493088 52.422485,41.913223 60.069016" style="stroke:rgb(0.000000%,0.000000%,0.000000%); stroke-width: 1.000000;stroke-linecap: round;stroke-linejoin: round;stroke-miterlimit: 10.000000;fill: none;"/>
  <path d="M41.913223 60.069016C37.694748 58.054016,32.791473 58.054016,28.572998 60.069016C22.025375 63.196548,18.382324 70.320587,19.679749 77.459885" style="stroke:rgb(0.000000%,0.000000%,0.000000%); stroke-width: 1.000000;stroke-linecap: round;stroke-linejoin: round;stroke-miterlimit: 10.000000;fill: none;"/>
</svg>