{
    "font_info": {
        "font-name": "Meta Old French",
        "font-id": "meta-old-french",
        "author-name": "luuse",
        "author-email": "contact@luuse.io",
				"version": "main",
				"licence": "ofl",
        "height": "32",
        "ascent": "22",
        "descent": "8"
    },
    "variables": {
        "guide": {
            "grid": {
                "type": "range",
                "range": [
                    0,
                    1,
                    1
                ],
                "description": "grid",
                "name": "grid",
                "value": "0",
                "unity": ""
            },
            "dot_label": {
                "type": "range",
                "range": [
                    0,
                    1,
                    1
                ],
                "description": "dot label",
                "name": "dot_label",
                "value": "1",
                "unity": ""
            },
            "hints": {
                "type": "range",
                "range": [
                    0,
                    1,
                    1
                ],
                "description": "hints",
                "name": "hints",
                "value": "0",
                "unity": ""
            }
        },
        "dimensions": {
            "outputtemplate": "\"projects/meta-old-french/output-svg/%c.svg\"",
            "outputformat": "\"svg\"",
            "u": {
                "type": "range",
                "range": [
                    0,
                    50,
                    0.05
                ],
                "description": "global unity",
                "name": "u",
                "value": "18.5",
                "unity": "pt"
            },
            "ux": {
                "type": "range",
                "range": [
                    0,
                    3,
                    0.05
                ],
                "description": "X Unity",
                "name": "ux",
                "value": "1",
                "unity": "u"
            },
            "uy": {
                "type": "range",
                "range": [
                    0,
                    3,
                    0.05
                ],
                "description": "Y Unity",
                "name": "uy",
                "value": "1",
                "unity": "u"
            },
            "s": {
                "type": "range",
                "range": [
                    0,
                    3,
                    0.05
                ],
                "description": "Stroke Unity",
                "name": "s",
                "value": "1",
                "unity": "u"
            },
            "sx": {
                "type": "range",
                "range": [
                    0,
                    3,
                    0.05
                ],
                "description": "X Stroke Unity",
                "name": "sx",
                "value": "1.05",
                "unity": "s"
            },
            "sy": {
                "type": "range",
                "range": [
                    0,
                    3,
                    0.05
                ],
                "description": "Y Stroke Unity",
                "name": "sy",
                "value": "1.05",
                "unity": "s"
            },
            "rot": {
                "type": "range",
                "range": [
                    0,
                    360,
                    1
                ],
                "description": "Stroke rotation",
                "name": "rot",
                "value": "0",
                "unity": ""
            },
            "srf_H": {
                "type": "range",
                "range": [
                    0,
                    10,
                    0.1
                ],
                "description": "Serif Height",
                "name": "srf_H",
                "value": "1",
                "unity": "ux"
            },
            "srf_W": {
                "type": "range",
                "range": [
                    0,
                    10,
                    0.1
                ],
                "description": "Serif Width",
                "name": "srf_W",
                "value": "5.2",
                "unity": "ux"
            }
        }
    }
}
