<?xml version="1.0" encoding="UTF-8"?>
<glyph name="semicolon" format="2">
  <advance width="149"/>
  <unicode hex="003B"/>
  <outline>
    <contour>
      <point x="73" y="158" type="curve" smooth="yes"/>
      <point x="74" y="158" type="line" smooth="yes"/>
      <point x="75.333" y="158"/>
      <point x="77" y="157.667"/>
      <point x="79" y="157" type="curve" smooth="yes"/>
      <point x="81.667" y="156.333"/>
      <point x="83.667" y="154.666"/>
      <point x="85" y="151.999" type="curve" smooth="yes"/>
      <point x="111" y="126.999" type="line" smooth="yes"/>
      <point x="113" y="125.666"/>
      <point x="114.333" y="123.666"/>
      <point x="115" y="120.999" type="curve" smooth="yes"/>
      <point x="116" y="120.999" type="line" smooth="yes"/>
      <point x="116.667" y="118.999"/>
      <point x="117" y="116.999"/>
      <point x="117" y="114.999" type="curve" smooth="yes"/>
      <point x="117" y="112.999" type="line"/>
      <point x="117" y="86.999" type="line" smooth="yes"/>
      <point x="117" y="82.999"/>
      <point x="115.333" y="79.666"/>
      <point x="112" y="76.999" type="curve" smooth="yes"/>
      <point x="84" y="47.999" type="line"/>
      <point x="55" y="18.999" type="line" smooth="yes"/>
      <point x="52.333" y="16.332"/>
      <point x="49" y="14.999"/>
      <point x="45" y="14.999" type="curve" smooth="yes"/>
      <point x="41" y="14.999"/>
      <point x="37.667" y="16.499"/>
      <point x="35" y="19.499" type="curve" smooth="yes"/>
      <point x="32.333" y="22.499"/>
      <point x="31" y="25.832"/>
      <point x="31" y="29.499" type="curve" smooth="yes"/>
      <point x="31" y="33.166"/>
      <point x="32.333" y="36.666"/>
      <point x="35" y="39.999" type="curve" smooth="yes"/>
      <point x="59" y="63.999" type="line"/>
      <point x="59" y="80.999" type="line"/>
      <point x="37" y="103.999" type="line" smooth="yes"/>
      <point x="35" y="105.332"/>
      <point x="33.333" y="106.999"/>
      <point x="32" y="108.999" type="curve" smooth="yes"/>
      <point x="31.333" y="110.999"/>
      <point x="31" y="112.999"/>
      <point x="31" y="114.999" type="curve" smooth="yes"/>
      <point x="31" y="116.999"/>
      <point x="31.333" y="118.999"/>
      <point x="32" y="120.999" type="curve" smooth="yes"/>
      <point x="33.333" y="123.666"/>
      <point x="35" y="125.666"/>
      <point x="37" y="126.999" type="curve" smooth="yes"/>
      <point x="62" y="151.999" type="line" smooth="yes"/>
      <point x="63.333" y="154.666"/>
      <point x="65.333" y="156.333"/>
      <point x="68" y="157" type="curve" smooth="yes"/>
      <point x="70" y="157.667"/>
      <point x="71.667" y="158"/>
    </contour>
    <contour>
      <point x="73" y="473" type="curve" smooth="yes"/>
      <point x="74" y="473" type="line" smooth="yes"/>
      <point x="76" y="473"/>
      <point x="77.667" y="472.333"/>
      <point x="79" y="471" type="curve" smooth="yes"/>
      <point x="81.667" y="470.333"/>
      <point x="83.667" y="469"/>
      <point x="85" y="467" type="curve" smooth="yes"/>
      <point x="111" y="441" type="line" smooth="yes"/>
      <point x="113" y="439.667"/>
      <point x="114.333" y="438"/>
      <point x="115" y="436" type="curve" smooth="yes"/>
      <point x="116" y="435" type="line" smooth="yes"/>
      <point x="116.667" y="433.667"/>
      <point x="117" y="432"/>
      <point x="117" y="430" type="curve" smooth="yes"/>
      <point x="117" y="427.333"/>
      <point x="116.333" y="425"/>
      <point x="115" y="423" type="curve" smooth="yes"/>
      <point x="114.333" y="421"/>
      <point x="113" y="419.333"/>
      <point x="111" y="418" type="curve" smooth="yes"/>
      <point x="85" y="393" type="line" smooth="yes"/>
      <point x="83.667" y="391"/>
      <point x="82" y="389.5"/>
      <point x="80" y="388.5" type="curve" smooth="yes"/>
      <point x="78" y="387.5"/>
      <point x="75.833" y="387"/>
      <point x="73.5" y="387" type="curve" smooth="yes"/>
      <point x="71.167" y="387"/>
      <point x="69" y="387.333"/>
      <point x="67" y="388" type="curve" smooth="yes"/>
      <point x="65" y="389.333"/>
      <point x="63.333" y="391"/>
      <point x="62" y="393" type="curve" smooth="yes"/>
      <point x="37" y="418" type="line" smooth="yes"/>
      <point x="35" y="419.333"/>
      <point x="33.5" y="421"/>
      <point x="32.5" y="423" type="curve" smooth="yes"/>
      <point x="31.5" y="425"/>
      <point x="31" y="427.333"/>
      <point x="31" y="430" type="curve" smooth="yes"/>
      <point x="31" y="432"/>
      <point x="31.333" y="434"/>
      <point x="32" y="436" type="curve" smooth="yes"/>
      <point x="33.333" y="438"/>
      <point x="35" y="439.667"/>
      <point x="37" y="441" type="curve" smooth="yes"/>
      <point x="62" y="467" type="line" smooth="yes"/>
      <point x="63.333" y="469"/>
      <point x="65.333" y="470.667"/>
      <point x="68" y="472" type="curve" smooth="yes"/>
      <point x="70" y="472.667"/>
      <point x="71.667" y="473"/>
    </contour>
  </outline>
</glyph>
