input ../global;

height = 8;
baseline := 0;
xHeight := 6.3;
asc := 10;
desc:= -3.6;
descHeight :=desc;
capHeight := 9;
overAsc := asc + 1;

bot hBot:= 0uy;



yliaison := 2.6uy;
xliaison := 10ux;

pair zliaison;
zliaison = (xliaison, yliaison);
xliaison_start := 0ux;


xliaison_end := 10ux;
yliaison:= 2.6uy;
pair stop;
stop:= (xliaison_end, yliaison);

pair start;
start := (xliaison_start, yliaison);

endRight:= 6.5;
endTop:= 2;

sas:= 1u;
sasx:= 1sas;
sasy:= 1sas;
rot_pen: 0;


Bdc_Ha:= xHeight*uy-(sasy/2);
Bdc_Ba:= 0*uy+(sasy/2);
Bdc_Ho:= xHeight*uy-(sasy/2.8);
Bdc_Bo:= 0*uy+(sy/2);

Bdc_Asc = asc*uy - (sy/2);
Bdc_Desc = desc*uy + (sy/2);

%Asc_Ho:= Ascender_Line *uy - (sasy/2.8);

coeff := 1;
coef := coeff*1;



ox = ux;
oy = uy;
xo = ux;
yo = uy;
bcle = bcl_H;

def P_Curve(suffix i, j)(expr c)=
    (0.5[x.i, x.j], c*[y.i, y.j])
enddef;


def beginchar(expr keycode)=
    width := 10 * sclX;
  beginfig(keycode);
  
  path p[];
  
  
 
    pickup pencircle scaled .2;

    draw (0 * ux, (descHeight - 2) * uy) --
    (width * ux, (descHeight - 2) * uy) --
    (width * ux, (asc + 2) * uy) --
    (0 * ux, (asc + 2) * uy) --
    cycle scaled 0 withcolor red;


    if grid = 1:
        defaultscale := 1;
    for i=0 upto width:
      draw ((i*1ux, overAsc*uy) -- (i*1ux, descHeight*uy)) slanted slt withcolor .3white;
    endfor;
    for i=-9 upto (overAsc):
      draw ((width*ux, i*1uy) -- (0*ux, i*1uy)) slanted slt withcolor .3white ;
    endfor;
    pickup pencircle scaled 1.1;
    draw (0ux, 0uy)--(10ux, 0uy) withcolor red;
    draw ((0ux, xHeight*uy)--(10ux, xHeight*uy)) slanted slt withcolor red;
  fi;
  pickup pencircle scaled 1;
  
  

  if hints = 1:
    draw ((0 * ux, (xHeight * uy) + os_x) -- (width * ux, (xHeight * uy) + os_x)) slanted slt  withcolor green;
    draw ((0 * ux, xHeight * uy) -- (width * ux, xHeight * uy)) slanted slt withcolor (green + blue);

        draw ((0 * ux, capHeight * uy) -- (width * ux, capHeight * uy)) slanted slt  withcolor (green + blue);
    draw ((0 * ux, asc * uy) -- (width * ux, asc * uy)) slanted slt  withcolor (green + blue);
    draw ((0 * ux, descHeight * uy) -- (width * ux, descHeight * uy)) slanted slt  withcolor (green + blue);
    draw ((0 * ux, baseline * uy) -- (width * ux, baseline * uy)) slanted slt  withcolor green;
  fi;



    path p[] ;
    pen mypen ;
    numeric L ;
    numeric S ;
    L:= 20;
    Sa:=sx / 2;
    Sb:=sy / 2;
    Rot:= 470;

    p[-1] := ( (Sa*cosd(0),Sb*sind(0)) for i=1 upto L-1:
-- (Sa*cosd(i/L*Rot), Sb*sind(i/L*Rot)) endfor .. cycle ) rotated rot;
    mypen := makepen(p[-1]) ;
    

  pickup pencircle xscaled sx yscaled sy rotated rot;


enddef;

def endchar(expr lenDots)=

    
  if dot_label = 1:
    defaultscale := 1;
    for i=0 upto lenDots:
    
      dotlabel.bot(str[i], (z[i] slanted slt ) withcolor blue) ;
    endfor;
  fi;
  endfig;
enddef;






def terminaison(suffix i)=
    
    (x.i, y.i)..
    (0.5[x.i,xliaison_end], 0.33[y.i,yliaison_end])..(xliaison_end, yliaison_end)
     
enddef;

def points(suffix i, j, dir)=
if dot_label = 1:
if dir = up :
    draw (x.i,y.i) slanted slt withcolor green;
    
    draw (x.j+0.8ux, y.j - 1.2uy) slanted slt withcolor green;
    draw ( x.j*boukle/10, y.j) slanted slt withcolor green;
elseif dir = down: 
draw (x.i,y.i) slanted slt withcolor green;
  draw ( x.j, y.j) slanted slt withcolor green;
  draw (x.j- 1ux, y.j + 1uy) slanted slt withcolor green;
fi;
fi;
enddef;





def hexagone = 
path r;
 n:=90;
  r:= for i=0 step 1 until n-1:
      0.5cm*up rotated (i*360/n) --
    endfor cycle;
enddef;


def def_shape(expr p)=

 if shape = nuage:
     
     for t=0 step 20 until arclength p:
         pickup pencircle scaled 1;
    pair per;
    per := (point arctime t of p of p);
%draw per slanted slt withcolor red;

fill ((xpart per - 2.5ux, ypart per)..
(xpart per, ypart per + 1.5uy)..
(xpart per + 2.5ux, ypart per)..
(xpart per, ypart per - 1.5uy)..cycle

) slanted slt withcolor white;

path a;
a:= ((xpart per - 2ux, ypart per)..
(xpart per, ypart per + 1uy)..
(xpart per + 2ux, ypart per)..
(xpart per, ypart per - 1uy)..cycle

);

path b;
b:= ((xpart per - 2ux, ypart per)..
(xpart per, ypart per + 1uy)..
(xpart per + 2ux, ypart per)..
(xpart per, ypart per - 1uy)..cycle

);

%draw subpath(-1pt, 0.5) of a ;



     
fi;
    
if shape = unebiseadroite:
    hexagone;
    path q;
    pen knib;

    knib = makepen(r);
    
    pickup knib;
    
%draw p slanted slt;
pickup pencircle scaled 1;  
    q := envelope knib of p;
    %draw q slanted slt withcolor red;
    pair a[];
    pair b[];
    path paz[];
   n = 0;
   
    stp := 30;
    
    
    
    for t=0 step stp until arclength q: 
   
    
    a[t]:= (point arctime t - (stp/2) of q of q) slanted slt; 
    
        
    b[t]:= (point arctime t+ (stp/2) of q of q) slanted slt;
    
    
    if (xpart a[t] >= xpart b[t]) and (ypart a[t] >= ypart b[t]):
         
         paz[t]:= (xpart a[t], ypart a[t])
        ..(0.6[xpart a[t], xpart b[t]], 0[ypart a[t], ypart b[t]])..
        (xpart b[t], ypart b[t]);
    elseif (xpart a[t] >= xpart b[t]) and (ypart a[t] <= ypart b[t]):
         paz[t]:= (xpart a[t], ypart a[t])
        ..(0.6[xpart a[t], xpart b[t]],1[ypart a[t], ypart b[t]])..
        (xpart b[t], ypart b[t]);
    
    elseif (xpart a[t] <= xpart b[t]) and (ypart a[t] >= ypart b[t]) :
           paz[t]:= (xpart a[t], ypart a[t])
        ..(0.5[xpart a[t], xpart b[t]], 1[ypart a[t], ypart b[t]])..
        (xpart b[t], ypart b[t]);
     elseif (xpart a[t] <= xpart b[t]) and (ypart a[t] <= ypart b[t]) :
           paz[t]:= (xpart a[t], ypart a[t])
        ..(0.6[xpart a[t], xpart b[t]], 0[ypart a[t], ypart b[t]])..
        (xpart b[t], ypart b[t]);
        fi; 
        
   
     
   
    
     
    
    endfor;

path final, finale;
final := for n=0 step 1 until (arclength q - 1)/stp :
    paz[n*stp]--
endfor cycle;



path outline;

fill final withcolor white;
for n=0 step 1 until (arclength q - 1)/stp :
draw paz[n*stp];
endfor;

elseif shape = bise:
draw p slanted slt xscaled sclX yscaled sclY withcolor col;
elseif shape= 
fi;
enddef;


def draw_shape(expr maxN)=
    for n=1 step 1 until maxN:
   
    def_shape(p[n]);
   
    
 endfor;
enddef;


input ../component;
     
     enddef;