<!-- Created by MetaPost 2.02 on 2022.06.14:1125 --><svg xmlns="http://www.w3.org/2000/svg" xmlns:xlink="http://www.w3.org/1999/xlink" version="1.1" width="195.267334" height="390.534668" viewBox="0 0 195 390">
<!-- Original BoundingBox: 0.000000 -109.837875 195.267334 280.696793 -->
  <path d="M0.000000 389.837875L195.267334 389.837875L195.267334 -0.696793L0.000000 -0.696793Z" style="stroke:rgb(100.000000%,0.000000%,0.000000%); stroke-width: 0.000000;stroke-linecap: round;stroke-linejoin: round;stroke-miterlimit: 10.000000;fill: none;"/>
</svg>